algo-arch,method,compile_src,clean_dot_cfg,create_po_graph,full_elim,lp,opt,run,real
RSTM-TLRW-arm,rollback,0.003931,0.007397,0.452532,0.078775,0.016346,0.228309,0.700061,3.028
RSTM-TLRW-arm,rollback,0.003983,0.007399,0.449935,0.078612,0.016337,0.228114,0.697361,3.004
RSTM-TLRW-arm,rollback,0.003926,0.007487,0.446951,0.078907,0.016307,0.228066,0.694357,3.006
RSTM-TLRW-arm,rollback,0.003875,0.007511,0.445988,0.078886,0.016497,0.229015,0.694284,3.003
RSTM-TLRW-arm,rollback,0.003847,0.007548,0.44615,0.079276,0.016428,0.229864,0.695421,3.005
RSTM-TLRW-arm,rollback,0.003922,0.007522,0.445817,0.078538,0.016405,0.22788,0.693201,2.996
RSTM-TLRW-arm,rollback,0.003888,0.007472,0.44524,0.078806,0.01643,0.228795,0.693465,2.998
RSTM-TLRW-arm,rollback,0.003817,0.007458,0.443167,0.078688,0.016445,0.228248,0.690631,2.998
RSTM-TLRW-arm,rollback,0.003942,0.007547,0.447368,0.07887,0.016414,0.22845,0.695398,3.005
RSTM-TLRW-arm,rollback,0.004019,0.007493,0.443866,0.078593,0.016333,0.22835,0.691619,3.005
RSTM-TLRW-arm,rollback,0.003961,0.007576,0.442645,0.078983,0.016433,0.22948,0.691552,2.995
RSTM-TLRW-arm,rollback,0.003938,0.007607,0.446446,0.078696,0.016304,0.228353,0.694391,3.019
RSTM-TLRW-arm,rollback,0.003884,0.007607,0.445575,0.078845,0.016477,0.228624,0.693775,3.010
RSTM-TLRW-arm,rollback,0.003934,0.007581,0.446586,0.078728,0.016385,0.228432,0.694567,2.995
RSTM-TLRW-arm,rollback,0.003922,0.007611,0.446807,0.078815,0.016436,0.228327,0.694701,3.010
RSTM-TLRW-arm,rollback,0.004275,0.007464,0.45032,0.079195,0.01643,0.228493,0.698519,2.998
RSTM-TLRW-arm,rollback,0.003972,0.007441,0.446166,0.079075,0.016248,0.229126,0.694691,3.000
RSTM-TLRW-arm,rollback,0.003927,0.007494,0.448955,0.097966,0.020294,0.264267,0.732995,3.066
RSTM-TLRW-arm,rollback,0.003865,0.007529,0.447345,0.078737,0.016406,0.227933,0.69461,2.990
RSTM-TLRW-arm,rollback,0.003865,0.007384,0.447619,0.07855,0.0163,0.227813,0.694555,3.019
RSTM-TLRW-arm,rollback,0.003864,0.007439,0.450898,0.078806,0.016255,0.228224,0.698274,2.993
RSTM-TLRW-arm,rollback,0.003867,0.007454,0.442035,0.078531,0.016294,0.228071,0.689336,2.985
RSTM-TLRW-arm,rollback,0.003955,0.007498,0.445042,0.078838,0.016393,0.228749,0.69333,2.996
RSTM-TLRW-arm,rollback,0.003825,0.007423,0.44533,0.078752,0.016315,0.227846,0.69243,2.995
RSTM-TLRW-arm,rollback,0.003873,0.007455,0.45118,0.079274,0.0163,0.229363,0.699838,2.995
RSTM-TLRW-arm,rollback,0.003954,0.007449,0.441861,0.078604,0.016275,0.227552,0.688957,2.990
RSTM-TLRW-arm,rollback,0.003919,0.007498,0.446143,0.078598,0.016219,0.227888,0.693343,2.985
RSTM-TLRW-arm,rollback,0.003985,0.007587,0.452074,0.078846,0.016352,0.228034,0.699636,3.000
RSTM-TLRW-arm,rollback,0.003854,0.007503,0.447598,0.07857,0.016327,0.228137,0.695065,2.986
RSTM-TLRW-arm,rollback,0.003915,0.007466,0.444067,0.078788,0.016283,0.227717,0.691088,2.984
RSTM-TLRW-arm,rollback,0.003912,0.007462,0.445347,0.078722,0.016249,0.227637,0.692218,2.992
RSTM-TLRW-arm,rollback,0.003876,0.007438,0.451338,0.078764,0.016308,0.228087,0.69871,2.989
RSTM-TLRW-arm,rollback,0.003906,0.007587,0.445018,0.078641,0.016297,0.228844,0.693361,3.010
RSTM-TLRW-arm,rollback,0.003907,0.007562,0.447122,0.078879,0.016384,0.228672,0.695432,2.993
RSTM-TLRW-arm,rollback,0.003966,0.007505,0.446838,0.078561,0.01637,0.227953,0.694225,3.004
RSTM-TLRW-arm,rollback,0.005253,0.007572,0.447606,0.078744,0.016215,0.227999,0.696552,3.006
RSTM-TLRW-arm,rollback,0.003936,0.007493,0.446938,0.078737,0.01629,0.227788,0.694096,2.991
RSTM-TLRW-arm,rollback,0.003982,0.007573,0.442762,0.078543,0.016323,0.227893,0.690194,2.989
RSTM-TLRW-arm,rollback,0.003931,0.007604,0.442643,0.078614,0.01637,0.227849,0.690067,2.983
RSTM-TLRW-arm,rollback,0.003986,0.007626,0.445461,0.078604,0.016347,0.227599,0.692641,2.991
RSTM-TLRW-arm,rollback,0.003862,0.007528,0.453629,0.078679,0.016264,0.227725,0.700773,3.000
RSTM-TLRW-arm,rollback,0.003975,0.007465,0.45344,0.078726,0.016328,0.228143,0.701029,3.017
RSTM-TLRW-arm,rollback,0.00394,0.007566,0.44511,0.078629,0.016411,0.228575,0.693268,3.010
RSTM-TLRW-arm,rollback,0.004273,0.007553,0.444998,0.078795,0.016385,0.227967,0.69278,2.987
RSTM-TLRW-arm,rollback,0.00643,0.013075,0.449434,0.07842,0.016213,0.227186,0.706686,3.009
RSTM-TLRW-arm,rollback,0.003863,0.007621,0.450441,0.078685,0.016467,0.228509,0.698498,3.013
RSTM-TLRW-arm,rollback,0.003988,0.007643,0.447873,0.078747,0.016344,0.228019,0.69562,3.004
RSTM-TLRW-arm,rollback,0.00404,0.007654,0.444114,0.078825,0.016314,0.227976,0.691867,2.990
RSTM-TLRW-arm,rollback,0.004014,0.007699,0.448248,0.078729,0.01651,0.228252,0.696247,3.011
RSTM-TLRW-arm,rollback,0.003978,0.00761,0.444537,0.078864,0.016335,0.22792,0.69219,3.010
RSTM-TLRW-arm,rollback,0.004034,0.007636,0.460176,0.078741,0.016444,0.228125,0.708024,3.021
RSTM-TLRW-arm,rollback,0.003889,0.007513,0.444783,0.078891,0.016221,0.228598,0.692726,2.986
RSTM-TLRW-arm,rollback,0.004337,0.007526,0.445295,0.078727,0.016225,0.228038,0.693113,2.986
RSTM-TLRW-arm,rollback,0.004005,0.007622,0.449131,0.078383,0.016473,0.227556,0.696353,3.012
RSTM-TLRW-arm,rollback,0.003939,0.007544,0.444132,0.078558,0.016348,0.227224,0.690803,2.990
RSTM-TLRW-arm,rollback,0.003887,0.00752,0.452416,0.078707,0.01622,0.227205,0.698971,3.013
RSTM-TLRW-arm,rollback,0.004004,0.00761,0.454173,0.0788,0.016347,0.22868,0.70257,3.012
RSTM-TLRW-arm,rollback,0.003945,0.007536,0.448483,0.078664,0.016307,0.228242,0.696277,3.001
RSTM-TLRW-arm,rollback,0.003951,0.007609,0.472402,0.081615,0.016378,0.238548,0.730529,3.032
RSTM-TLRW-arm,rollback,0.004049,0.007527,0.446427,0.078761,0.016219,0.227891,0.693932,3.004
RSTM-TLRW-arm,rollback,0.003986,0.007582,0.448505,0.07876,0.016369,0.228693,0.696754,3.002
RSTM-TLRW-arm,rollback,0.004058,0.007567,0.446938,0.078825,0.016254,0.22829,0.694842,3.001
RSTM-TLRW-arm,rollback,0.003956,0.007602,0.451318,0.07859,0.016228,0.227822,0.698812,2.989
RSTM-TLRW-arm,rollback,0.004087,0.007569,0.444812,0.078717,0.016372,0.228409,0.692841,2.999
RSTM-TLRW-arm,rollback,0.003949,0.007651,0.443103,0.078575,0.016395,0.227327,0.690028,2.994
RSTM-TLRW-arm,rollback,0.003951,0.00756,0.451322,0.078771,0.016223,0.228319,0.699088,3.004
RSTM-TLRW-arm,rollback,0.004015,0.007548,0.453481,0.078665,0.016295,0.227781,0.70087,3.003
RSTM-TLRW-arm,rollback,0.006353,0.012744,0.447753,0.078743,0.016303,0.228169,0.705542,3.005
RSTM-TLRW-arm,rollback,0.003985,0.007635,0.449176,0.078741,0.016404,0.228835,0.697678,2.995
RSTM-TLRW-arm,rollback,0.004045,0.00762,0.442009,0.078525,0.016399,0.228399,0.690122,2.994
RSTM-TLRW-arm,rollback,0.004024,0.007653,0.443243,0.07883,0.016241,0.228412,0.691458,2.989
RSTM-TLRW-arm,rollback,0.004033,0.007706,0.44402,0.078515,0.016418,0.227234,0.691007,2.991
RSTM-TLRW-arm,rollback,0.004,0.007624,0.450646,0.078442,0.016329,0.227828,0.698217,2.995
RSTM-TLRW-arm,rollback,0.003989,0.007677,0.450744,0.078738,0.0163,0.22803,0.698417,2.995
RSTM-TLRW-arm,rollback,0.004014,0.007611,0.444854,0.078998,0.016399,0.228776,0.693419,2.991
RSTM-TLRW-arm,rollback,0.003975,0.007596,0.441749,0.078842,0.016273,0.228403,0.689818,3.004
RSTM-TLRW-arm,rollback,0.004028,0.007654,0.444058,0.078657,0.01641,0.228178,0.691947,3.001
RSTM-TLRW-arm,rollback,0.004047,0.007662,0.449676,0.078749,0.016299,0.227551,0.696942,3.015
RSTM-TLRW-arm,rollback,0.004048,0.00761,0.450022,0.078567,0.016243,0.228325,0.697955,2.998
RSTM-TLRW-arm,rollback,0.003967,0.007639,0.448462,0.078614,0.016334,0.228414,0.696533,2.992
RSTM-TLRW-arm,rollback,0.003963,0.007656,0.453912,0.078914,0.016392,0.228822,0.702498,3.006
RSTM-TLRW-arm,rollback,0.00407,0.00762,0.450605,0.078561,0.016381,0.227601,0.69787,3.013
RSTM-TLRW-arm,rollback,0.003956,0.007608,0.450243,0.078991,0.01653,0.22889,0.698671,3.001
RSTM-TLRW-arm,rollback,0.003938,0.007584,0.448592,0.078797,0.016243,0.228116,0.696161,2.994
RSTM-TLRW-arm,rollback,0.004033,0.007598,0.441908,0.078706,0.016224,0.227239,0.688821,2.991
RSTM-TLRW-arm,rollback,0.003986,0.007644,0.451928,0.078996,0.016335,0.228503,0.700056,3.007
RSTM-TLRW-arm,rollback,0.003937,0.007591,0.443418,0.078731,0.016197,0.22783,0.69095,2.991
RSTM-TLRW-arm,rollback,0.004122,0.007565,0.446283,0.078518,0.016257,0.227882,0.694045,2.999
RSTM-TLRW-arm,rollback,0.004039,0.007758,0.444223,0.078975,0.016425,0.228545,0.692696,3.000
RSTM-TLRW-arm,rollback,0.004066,0.007721,0.449125,0.078765,0.016585,0.228774,0.697904,3.007
RSTM-TLRW-arm,rollback,0.004071,0.00773,0.445355,0.078554,0.016314,0.227353,0.692496,3.001
RSTM-TLRW-arm,rollback,0.003899,0.007718,0.445372,0.079009,0.016369,0.228588,0.693739,3.012
RSTM-TLRW-arm,rollback,0.003995,0.007619,0.449838,0.078472,0.016297,0.227368,0.69681,3.006
RSTM-TLRW-arm,rollback,0.004077,0.007987,0.4491,0.079415,0.016461,0.229282,0.698521,3.006
RSTM-TLRW-arm,rollback,0.004034,0.007774,0.449873,0.078812,0.016404,0.228581,0.698419,3.004
RSTM-TLRW-arm,rollback,0.004047,0.00763,0.447088,0.078702,0.016217,0.228001,0.694742,3.004
RSTM-TLRW-arm,rollback,0.004024,0.007759,0.44527,0.078728,0.016351,0.227977,0.693185,3.004
RSTM-TLRW-arm,rollback,0.004045,0.007677,0.444888,0.078747,0.016351,0.228151,0.692853,3.000
RSTM-TLRW-arm,rollback,0.004049,0.007732,0.447183,0.078912,0.016362,0.227972,0.694959,3.004
RSTM-TLRW-arm,rollback,0.004055,0.00776,0.441626,0.078901,0.016337,0.228472,0.690018,2.991
