algo-arch,method,compile_src,clean_dot_cfg,create_po_graph,full_elim,lp,opt,run,real
dekker-arm,thr2,0.004681,0.009102,0.040549,0.033595,0.01254,0.112317,0.172717,2.307
dekker-arm,thr2,0.00456,0.009054,0.040152,0.033577,0.012415,0.112157,0.171933,2.302
dekker-arm,thr2,0.004824,0.009099,0.040273,0.033726,0.012535,0.112483,0.172669,2.326
dekker-arm,thr2,0.004626,0.008876,0.040035,0.033589,0.012341,0.112084,0.171526,2.294
dekker-arm,thr2,0.004714,0.009038,0.040178,0.033591,0.012427,0.112197,0.172192,2.304
dekker-arm,thr2,0.004672,0.008993,0.040153,0.033662,0.012451,0.112436,0.172305,2.306
dekker-arm,thr2,0.004693,0.008993,0.040167,0.033597,0.012541,0.11259,0.172396,2.305
dekker-arm,thr2,0.004594,0.009074,0.040381,0.033672,0.01236,0.112351,0.172319,2.309
dekker-arm,thr2,0.004625,0.008898,0.040063,0.033627,0.012503,0.112445,0.17204,2.298
dekker-arm,thr2,0.004619,0.008884,0.040322,0.033625,0.012357,0.11227,0.171977,2.297
dekker-arm,thr2,0.00462,0.008872,0.040036,0.033615,0.012351,0.111962,0.171375,2.302
dekker-arm,thr2,0.004771,0.009091,0.04013,0.033608,0.012535,0.112466,0.17259,2.324
dekker-arm,thr2,0.00477,0.009076,0.040252,0.033673,0.012642,0.112631,0.172796,2.306
dekker-arm,thr2,0.004746,0.009088,0.040391,0.033712,0.012562,0.112819,0.173145,2.319
dekker-arm,thr2,0.004699,0.008986,0.04002,0.033617,0.01242,0.112231,0.171942,2.302
dekker-arm,thr2,0.004713,0.008971,0.040055,0.033656,0.012376,0.112567,0.172205,2.306
dekker-arm,thr2,0.004647,0.00889,0.040149,0.03366,0.012442,0.112471,0.172086,2.296
dekker-arm,thr2,0.004735,0.008998,0.04008,0.033674,0.01253,0.112508,0.172312,2.309
dekker-arm,thr2,0.004634,0.008892,0.040483,0.033625,0.012368,0.112199,0.172107,2.296
dekker-arm,thr2,0.004628,0.008907,0.040137,0.03361,0.01239,0.112359,0.171958,2.302
dekker-arm,thr2,0.004645,0.008981,0.040231,0.033751,0.012527,0.113329,0.17315,2.319
dekker-arm,thr2,0.004683,0.008948,0.040294,0.033622,0.012504,0.112694,0.172623,2.298
dekker-arm,thr2,0.004677,0.00897,0.040191,0.033545,0.012495,0.11224,0.172162,2.311
dekker-arm,thr2,0.004681,0.008971,0.040177,0.033511,0.012523,0.112226,0.172059,2.310
dekker-arm,thr2,0.004647,0.008898,0.040148,0.033584,0.012366,0.112185,0.171895,2.297
dekker-arm,thr2,0.004676,0.009029,0.040084,0.033537,0.012443,0.112174,0.171897,2.305
dekker-arm,thr2,0.004646,0.008869,0.040171,0.033584,0.012404,0.11247,0.172175,2.308
dekker-arm,thr2,0.004666,0.008904,0.040172,0.033682,0.012416,0.112536,0.172212,2.306
dekker-arm,thr2,0.004615,0.008902,0.040465,0.033708,0.012383,0.112416,0.1723,2.295
dekker-arm,thr2,0.00462,0.008891,0.040137,0.033853,0.012388,0.112511,0.172239,2.311
dekker-arm,thr2,0.004681,0.008999,0.040184,0.033758,0.012536,0.112474,0.172279,2.309
dekker-arm,thr2,0.004694,0.00904,0.040082,0.03361,0.012435,0.11217,0.172003,2.308
dekker-arm,thr2,0.004625,0.008906,0.040119,0.033554,0.01232,0.112088,0.171662,2.295
dekker-arm,thr2,0.004608,0.008902,0.040095,0.03358,0.012359,0.112223,0.171847,2.319
dekker-arm,thr2,0.004699,0.008968,0.040443,0.033584,0.012512,0.112419,0.172491,2.327
dekker-arm,thr2,0.004674,0.008999,0.040267,0.03384,0.012528,0.112859,0.172787,2.303
dekker-arm,thr2,0.004686,0.00897,0.040079,0.033794,0.012565,0.112756,0.17244,2.299
dekker-arm,thr2,0.004704,0.009067,0.040167,0.033684,0.012503,0.11261,0.172524,2.311
dekker-arm,thr2,0.004632,0.009084,0.040056,0.033651,0.012408,0.112271,0.172014,2.313
dekker-arm,thr2,0.004765,0.009121,0.041736,0.033565,0.012504,0.112246,0.173963,2.326
dekker-arm,thr2,0.004681,0.008953,0.040113,0.033585,0.012413,0.112147,0.171859,2.307
dekker-arm,thr2,0.004743,0.009021,0.040527,0.033954,0.012584,0.113316,0.173564,2.336
dekker-arm,thr2,0.004665,0.008987,0.040414,0.033719,0.012417,0.11231,0.172393,2.302
dekker-arm,thr2,0.004793,0.009076,0.040389,0.033567,0.012561,0.112357,0.172646,2.308
dekker-arm,thr2,0.004749,0.009004,0.040385,0.03363,0.012396,0.112307,0.17246,2.322
dekker-arm,thr2,0.004709,0.009017,0.040503,0.033636,0.012482,0.112769,0.172948,2.321
dekker-arm,thr2,0.004689,0.009027,0.040995,0.033653,0.012488,0.112451,0.173265,2.305
dekker-arm,thr2,0.004601,0.008883,0.040089,0.033665,0.012424,0.112355,0.171837,2.294
dekker-arm,thr2,0.004695,0.009153,0.040293,0.033592,0.012525,0.112363,0.172593,2.306
dekker-arm,thr2,0.004773,0.008896,0.040204,0.033603,0.012411,0.112324,0.172218,2.325
dekker-arm,thr2,0.004678,0.008955,0.040244,0.033659,0.012507,0.112421,0.172231,2.316
dekker-arm,thr2,0.004625,0.008877,0.040112,0.03362,0.012402,0.112064,0.17171,2.303
dekker-arm,thr2,0.004643,0.008879,0.040228,0.033684,0.012419,0.112386,0.172071,2.306
dekker-arm,thr2,0.004667,0.008991,0.040199,0.033714,0.012495,0.112463,0.172528,2.303
dekker-arm,thr2,0.004633,0.008902,0.039997,0.033753,0.012385,0.112357,0.171915,2.304
dekker-arm,thr2,0.004702,0.00892,0.040223,0.033613,0.012324,0.112091,0.171966,2.313
dekker-arm,thr2,0.004724,0.008975,0.040272,0.033586,0.012472,0.112502,0.172424,2.320
dekker-arm,thr2,0.004666,0.008862,0.041062,0.033588,0.012466,0.112276,0.172753,2.317
dekker-arm,thr2,0.004601,0.008889,0.040062,0.033584,0.012401,0.112277,0.171715,2.312
dekker-arm,thr2,0.00469,0.009006,0.040173,0.033633,0.012534,0.112535,0.172354,2.305
dekker-arm,thr2,0.004758,0.009141,0.040196,0.033595,0.01251,0.112352,0.172532,2.310
dekker-arm,thr2,0.004725,0.009072,0.040209,0.033652,0.012638,0.112867,0.173004,2.316
dekker-arm,thr2,0.004796,0.009101,0.040371,0.034207,0.012539,0.11322,0.173643,2.324
dekker-arm,thr2,0.004687,0.009164,0.040276,0.033623,0.012442,0.112458,0.172584,2.313
dekker-arm,thr2,0.004633,0.008909,0.040084,0.03365,0.012404,0.112317,0.171909,2.296
dekker-arm,thr2,0.004692,0.008914,0.040232,0.033596,0.012362,0.112343,0.172107,2.296
dekker-arm,thr2,0.004696,0.008946,0.040323,0.033638,0.012476,0.112345,0.172257,2.302
dekker-arm,thr2,0.004723,0.008969,0.039978,0.033732,0.01255,0.112606,0.172201,2.331
dekker-arm,thr2,0.004585,0.008897,0.04013,0.033621,0.012335,0.112242,0.171748,2.302
dekker-arm,thr2,0.004616,0.008951,0.040415,0.033757,0.012381,0.11232,0.172295,2.301
dekker-arm,thr2,0.00466,0.008937,0.040041,0.033623,0.012402,0.112258,0.17192,2.323
dekker-arm,thr2,0.004684,0.008997,0.040181,0.033617,0.012551,0.112645,0.17249,2.307
dekker-arm,thr2,0.004688,0.008959,0.040942,0.033591,0.012503,0.11231,0.17288,2.307
dekker-arm,thr2,0.005259,0.010127,0.05908,0.051534,0.016643,0.169035,0.250387,3.205
dekker-arm,thr2,0.004655,0.008913,0.040132,0.033706,0.012366,0.112291,0.171986,2.302
dekker-arm,thr2,0.004639,0.008866,0.040394,0.033673,0.012504,0.112509,0.172299,2.299
dekker-arm,thr2,0.004699,0.009021,0.040272,0.033625,0.012438,0.11244,0.172378,2.304
dekker-arm,thr2,0.004685,0.009073,0.040244,0.033657,0.012502,0.112734,0.172858,2.311
dekker-arm,thr2,0.004764,0.009019,0.040746,0.033561,0.012436,0.112347,0.172872,2.327
dekker-arm,thr2,0.004672,0.009035,0.040219,0.03364,0.012442,0.112314,0.172207,2.311
dekker-arm,thr2,0.004704,0.00898,0.040306,0.033619,0.01251,0.112464,0.172564,2.317
dekker-arm,thr2,0.004627,0.008907,0.040147,0.033797,0.012388,0.112583,0.172149,2.297
dekker-arm,thr2,0.004648,0.008886,0.040136,0.033648,0.012409,0.112442,0.172034,2.304
dekker-arm,thr2,0.004735,0.008952,0.040268,0.033716,0.012494,0.112363,0.172356,2.305
dekker-arm,thr2,0.004636,0.008917,0.040116,0.033563,0.012314,0.112126,0.171799,2.295
dekker-arm,thr2,0.004719,0.009065,0.040117,0.033654,0.012536,0.11248,0.172494,2.307
dekker-arm,thr2,0.004678,0.009096,0.040297,0.033635,0.012489,0.11257,0.172652,2.314
dekker-arm,thr2,0.004775,0.009085,0.040337,0.033648,0.012577,0.112722,0.17292,2.339
dekker-arm,thr2,0.004713,0.009102,0.040164,0.033513,0.01249,0.112278,0.172351,2.306
dekker-arm,thr2,0.00471,0.009088,0.040188,0.033613,0.012774,0.112829,0.17291,2.314
dekker-arm,thr2,0.006487,0.012597,0.040114,0.033524,0.012395,0.112076,0.179211,2.314
dekker-arm,thr2,0.004732,0.009106,0.040226,0.033655,0.012589,0.112538,0.17273,2.314
dekker-arm,thr2,0.004702,0.008994,0.040157,0.033649,0.012502,0.112529,0.17236,2.301
dekker-arm,thr2,0.00467,0.008928,0.040114,0.033791,0.012578,0.113462,0.173168,2.303
dekker-arm,thr2,0.004655,0.008894,0.040258,0.03362,0.01268,0.112915,0.172631,2.334
dekker-arm,thr2,0.004751,0.009056,0.040504,0.03364,0.01264,0.112909,0.173245,2.325
dekker-arm,thr2,0.004734,0.008996,0.04037,0.033643,0.012498,0.112481,0.172548,2.313
dekker-arm,thr2,0.004689,0.008996,0.040148,0.033596,0.012452,0.112357,0.172294,2.318
dekker-arm,thr2,0.004755,0.009103,0.040097,0.033748,0.012512,0.112591,0.172649,2.311
dekker-arm,thr2,0.004685,0.008975,0.040526,0.033691,0.012429,0.112636,0.172838,2.313
