algo-arch,method,compile_src,clean_dot_cfg,create_po_graph,full_elim,lp,opt,run,real
lamport-arm,thr1,0.004729,0.009011,0.03663,0.063355,0.012787,0.163552,0.219971,2.360
lamport-arm,thr1,0.004809,0.009077,0.036586,0.063509,0.012884,0.163613,0.220165,2.361
lamport-arm,thr1,0.004725,0.009118,0.036556,0.063332,0.012903,0.163579,0.220091,2.353
lamport-arm,thr1,0.004691,0.00902,0.036575,0.0635,0.012896,0.163746,0.220326,2.362
lamport-arm,thr1,0.004712,0.009069,0.03681,0.063495,0.012875,0.163512,0.220164,2.356
lamport-arm,thr1,0.004726,0.008946,0.036552,0.063213,0.012846,0.163522,0.219766,2.367
lamport-arm,thr1,0.004633,0.008963,0.036852,0.063738,0.012825,0.16406,0.220653,2.351
lamport-arm,thr1,0.004662,0.009019,0.036805,0.063312,0.012853,0.16333,0.219955,2.372
lamport-arm,thr1,0.00468,0.008878,0.036528,0.063392,0.012786,0.163636,0.219756,2.344
lamport-arm,thr1,0.004715,0.009011,0.036708,0.06345,0.012913,0.163979,0.220487,2.360
lamport-arm,thr1,0.004668,0.008953,0.036605,0.063595,0.012908,0.16405,0.220328,2.359
lamport-arm,thr1,0.004752,0.009111,0.036711,0.063584,0.012959,0.163935,0.220627,2.370
lamport-arm,thr1,0.004695,0.009025,0.036786,0.063332,0.012824,0.16353,0.220554,2.351
lamport-arm,thr1,0.00464,0.00898,0.036508,0.063224,0.012849,0.163176,0.219591,2.362
lamport-arm,thr1,0.004789,0.009012,0.036596,0.063663,0.012801,0.164078,0.220573,2.381
lamport-arm,thr1,0.004775,0.008948,0.036725,0.063413,0.012768,0.163468,0.219881,2.365
lamport-arm,thr1,0.004727,0.008904,0.036667,0.063375,0.01278,0.163461,0.219789,2.356
lamport-arm,thr1,0.004661,0.008902,0.036842,0.063275,0.012781,0.163488,0.219946,2.362
lamport-arm,thr1,0.004724,0.008993,0.036738,0.063362,0.012904,0.163787,0.220331,2.385
lamport-arm,thr1,0.00469,0.008973,0.036804,0.063523,0.012882,0.163933,0.220445,2.356
lamport-arm,thr1,0.004663,0.008987,0.036658,0.06361,0.012974,0.164251,0.22055,2.351
lamport-arm,thr1,0.004712,0.009204,0.036552,0.063342,0.012713,0.163422,0.219966,2.348
lamport-arm,thr1,0.004671,0.00889,0.036602,0.06355,0.012792,0.163526,0.219892,2.344
lamport-arm,thr1,0.004672,0.008981,0.036719,0.063451,0.012867,0.16362,0.22004,2.359
lamport-arm,thr1,0.004669,0.009017,0.036544,0.063535,0.012901,0.163911,0.220171,2.357
lamport-arm,thr1,0.004761,0.009004,0.036586,0.063373,0.012943,0.163718,0.22008,2.370
lamport-arm,thr1,0.004714,0.008978,0.036685,0.063558,0.012841,0.163718,0.220386,2.361
lamport-arm,thr1,0.004623,0.008864,0.036558,0.063518,0.012758,0.163747,0.219749,2.352
lamport-arm,thr1,0.004694,0.009011,0.036603,0.063544,0.01288,0.163916,0.22028,2.351
lamport-arm,thr1,0.004605,0.008965,0.036596,0.063517,0.012913,0.163871,0.220273,2.356
lamport-arm,thr1,0.004658,0.008913,0.036718,0.063383,0.012752,0.163673,0.220199,2.348
lamport-arm,thr1,0.004756,0.008977,0.036628,0.063244,0.012835,0.163425,0.219891,2.353
lamport-arm,thr1,0.004719,0.008981,0.03665,0.06354,0.012833,0.163766,0.220379,2.349
lamport-arm,thr1,0.004689,0.008987,0.036671,0.063415,0.012907,0.163738,0.220158,2.355
lamport-arm,thr1,0.004658,0.008931,0.036607,0.063354,0.012753,0.163462,0.219622,2.342
lamport-arm,thr1,0.004803,0.008957,0.036686,0.063549,0.012888,0.164084,0.220881,2.357
lamport-arm,thr1,0.004677,0.009047,0.036812,0.067207,0.013051,0.168559,0.225082,2.348
lamport-arm,thr1,0.004672,0.009015,0.036954,0.063316,0.012811,0.163388,0.220184,2.352
lamport-arm,thr1,0.004664,0.009047,0.036828,0.063633,0.012879,0.163988,0.220658,2.362
lamport-arm,thr1,0.004798,0.009108,0.036966,0.063316,0.013198,0.164069,0.221106,2.367
lamport-arm,thr1,0.00472,0.009028,0.036654,0.063273,0.012832,0.163339,0.219765,2.353
lamport-arm,thr1,0.004713,0.009062,0.03673,0.063554,0.012957,0.164149,0.220855,2.357
lamport-arm,thr1,0.004756,0.008991,0.036651,0.063453,0.012884,0.164061,0.220492,2.371
lamport-arm,thr1,0.004736,0.009075,0.036718,0.063538,0.013216,0.165149,0.221887,2.379
lamport-arm,thr1,0.004741,0.009154,0.036604,0.063869,0.01297,0.164165,0.220766,2.361
lamport-arm,thr1,0.004693,0.009015,0.036712,0.06364,0.012922,0.164213,0.220656,2.351
lamport-arm,thr1,0.004622,0.009009,0.036549,0.063365,0.012904,0.163793,0.219983,2.354
lamport-arm,thr1,0.004643,0.008906,0.03639,0.063453,0.012747,0.163547,0.219456,2.348
lamport-arm,thr1,0.00468,0.008974,0.036921,0.063292,0.013231,0.164323,0.221069,2.380
lamport-arm,thr1,0.00464,0.008948,0.036651,0.063504,0.012946,0.163958,0.220443,2.351
lamport-arm,thr1,0.004613,0.008971,0.0366,0.06337,0.013131,0.164019,0.220379,2.349
lamport-arm,thr1,0.004822,0.009048,0.036653,0.063492,0.012889,0.163891,0.220481,2.368
lamport-arm,thr1,0.004651,0.008909,0.036548,0.063318,0.012783,0.163326,0.219507,2.344
lamport-arm,thr1,0.0047,0.008996,0.036624,0.063324,0.012873,0.163915,0.220275,2.369
lamport-arm,thr1,0.004676,0.008884,0.036504,0.06359,0.012818,0.163994,0.220024,2.361
lamport-arm,thr1,0.004537,0.008918,0.036705,0.063434,0.012781,0.163424,0.219598,2.343
lamport-arm,thr1,0.00458,0.008864,0.036602,0.063329,0.012827,0.163706,0.219693,2.350
lamport-arm,thr1,0.004621,0.00897,0.036612,0.063447,0.012841,0.163624,0.219918,2.352
lamport-arm,thr1,0.004642,0.008916,0.036528,0.063333,0.012769,0.163271,0.219315,2.346
lamport-arm,thr1,0.004641,0.008982,0.036643,0.063505,0.01288,0.163739,0.220041,2.350
lamport-arm,thr1,0.004684,0.008965,0.03671,0.063511,0.012809,0.163804,0.220231,2.350
lamport-arm,thr1,0.004722,0.009022,0.036604,0.063664,0.012836,0.164007,0.220424,2.352
lamport-arm,thr1,0.004729,0.009,0.036874,0.063419,0.012789,0.164127,0.2211,2.360
lamport-arm,thr1,0.004583,0.009012,0.036621,0.063299,0.012848,0.163797,0.220056,2.354
lamport-arm,thr1,0.004632,0.008878,0.036607,0.06343,0.012747,0.16351,0.21965,2.342
lamport-arm,thr1,0.004635,0.008901,0.036768,0.063351,0.012931,0.163773,0.220144,2.365
lamport-arm,thr1,0.00464,0.008946,0.036687,0.06339,0.012753,0.163673,0.220124,2.344
lamport-arm,thr1,0.004683,0.009006,0.036764,0.063575,0.012897,0.164126,0.220621,2.355
lamport-arm,thr1,0.004639,0.008924,0.036476,0.063396,0.012803,0.16357,0.219642,2.350
lamport-arm,thr1,0.004725,0.008869,0.036505,0.063375,0.012765,0.163514,0.219669,2.343
lamport-arm,thr1,0.004623,0.008873,0.036702,0.06329,0.012741,0.163182,0.219422,2.348
lamport-arm,thr1,0.004691,0.008948,0.036815,0.063368,0.01294,0.163644,0.220162,2.362
lamport-arm,thr1,0.004629,0.008935,0.036646,0.063335,0.012795,0.163339,0.219483,2.347
lamport-arm,thr1,0.005259,0.010169,0.053692,0.096964,0.017324,0.247741,0.323845,3.284
lamport-arm,thr1,0.00517,0.008868,0.036541,0.063416,0.012726,0.163683,0.220228,2.367
lamport-arm,thr1,0.00464,0.008923,0.036519,0.063484,0.012765,0.163646,0.219954,2.352
lamport-arm,thr1,0.004693,0.009026,0.036686,0.063662,0.012817,0.164282,0.220933,2.357
lamport-arm,thr1,0.004728,0.009136,0.036592,0.063585,0.012948,0.164011,0.220559,2.359
lamport-arm,thr1,0.004774,0.009076,0.036731,0.063509,0.012963,0.164154,0.221041,2.362
lamport-arm,thr1,0.004754,0.008997,0.036528,0.063551,0.012936,0.163837,0.220178,2.370
lamport-arm,thr1,0.00467,0.008916,0.036506,0.063358,0.01281,0.163699,0.219757,2.344
lamport-arm,thr1,0.004644,0.008902,0.036445,0.063522,0.012771,0.163915,0.220123,2.361
lamport-arm,thr1,0.004615,0.008909,0.036699,0.063649,0.012781,0.163923,0.220166,2.347
lamport-arm,thr1,0.004752,0.008975,0.036557,0.06344,0.01293,0.164204,0.22057,2.362
lamport-arm,thr1,0.004686,0.00891,0.036464,0.06349,0.012816,0.163805,0.219846,2.352
lamport-arm,thr1,0.004756,0.009128,0.036547,0.06357,0.012957,0.164173,0.220694,2.359
lamport-arm,thr1,0.004744,0.009071,0.036661,0.063264,0.012906,0.163586,0.220209,2.355
lamport-arm,thr1,0.004677,0.009075,0.03656,0.063403,0.012884,0.163646,0.220061,2.360
lamport-arm,thr1,0.004688,0.009075,0.036572,0.063588,0.012965,0.163934,0.220478,2.373
lamport-arm,thr1,0.00466,0.009022,0.036669,0.063464,0.013092,0.164757,0.221346,2.363
lamport-arm,thr1,0.004693,0.009005,0.036804,0.063569,0.012755,0.163666,0.220208,2.352
lamport-arm,thr1,0.004724,0.008991,0.03674,0.063537,0.012901,0.164062,0.220618,2.378
lamport-arm,thr1,0.004672,0.008919,0.036578,0.063411,0.01278,0.163328,0.219497,2.347
lamport-arm,thr1,0.004716,0.00898,0.036652,0.063399,0.012929,0.164086,0.220721,2.351
lamport-arm,thr1,0.004715,0.009004,0.036485,0.063162,0.01289,0.163407,0.21971,2.354
lamport-arm,thr1,0.004578,0.009003,0.036554,0.063616,0.012838,0.164047,0.220258,2.369
lamport-arm,thr1,0.004743,0.009002,0.036782,0.06351,0.012835,0.16409,0.220918,2.361
lamport-arm,thr1,0.004675,0.008986,0.036553,0.063398,0.012919,0.163491,0.219927,2.351
lamport-arm,thr1,0.004711,0.009,0.03653,0.063351,0.012889,0.163795,0.220295,2.364
lamport-arm,thr1,0.00466,0.0089,0.036858,0.063471,0.012839,0.163747,0.220417,2.365
