algo-arch,method,compile_src,clean_dot_cfg,create_po_graph,full_elim,lp,opt,run,real
RSTM-TLRW-x86,read_ro,0.004665,0.008942,0.355456,0.128447,0.013615,0.309402,0.687407,3.032
RSTM-TLRW-x86,read_ro,0.004623,0.008877,0.35443,0.129434,0.013532,0.310709,0.687543,3.028
RSTM-TLRW-x86,read_ro,0.004656,0.008957,0.357269,0.12886,0.013658,0.310183,0.68996,3.042
RSTM-TLRW-x86,read_ro,0.004679,0.008982,0.354572,0.128565,0.013547,0.309667,0.686668,3.031
RSTM-TLRW-x86,read_ro,0.004681,0.008921,0.356294,0.128547,0.013923,0.309509,0.688119,3.032
RSTM-TLRW-x86,read_ro,0.00469,0.008979,0.355386,0.12852,0.01368,0.309777,0.687732,3.047
RSTM-TLRW-x86,read_ro,0.004648,0.008862,0.356036,0.128697,0.01349,0.309813,0.688096,3.027
RSTM-TLRW-x86,read_ro,0.004632,0.008821,0.3698,0.128576,0.013444,0.309807,0.701792,3.041
RSTM-TLRW-x86,read_ro,0.004638,0.00885,0.359974,0.128584,0.013452,0.309375,0.691675,3.043
RSTM-TLRW-x86,read_ro,0.004699,0.008966,0.353858,0.128559,0.013588,0.310062,0.686351,3.028
RSTM-TLRW-x86,read_ro,0.004655,0.008853,0.355803,0.128672,0.013587,0.309517,0.687567,3.026
RSTM-TLRW-x86,read_ro,0.004614,0.008872,0.35501,0.129391,0.013468,0.310923,0.688299,3.027
RSTM-TLRW-x86,read_ro,0.004598,0.008861,0.356067,0.128864,0.013482,0.310324,0.688715,3.032
RSTM-TLRW-x86,read_ro,0.004677,0.008918,0.355754,0.1284,0.01355,0.309244,0.687584,3.037
RSTM-TLRW-x86,read_ro,0.00466,0.009028,0.35776,0.128618,0.013635,0.309864,0.690179,3.038
RSTM-TLRW-x86,read_ro,0.004664,0.008914,0.351725,0.128828,0.013602,0.310584,0.684652,3.030
RSTM-TLRW-x86,read_ro,0.004555,0.008873,0.354986,0.128615,0.013487,0.309544,0.68684,3.031
RSTM-TLRW-x86,read_ro,0.004634,0.008889,0.3581,0.129314,0.013485,0.310219,0.690718,3.035
RSTM-TLRW-x86,read_ro,0.004557,0.008694,0.355109,0.128758,0.013463,0.309868,0.686821,3.015
RSTM-TLRW-x86,read_ro,0.004527,0.008775,0.356582,0.128866,0.013455,0.310297,0.688953,3.018
RSTM-TLRW-x86,read_ro,0.004495,0.008774,0.356816,0.129577,0.013501,0.311224,0.690067,3.022
RSTM-TLRW-x86,read_ro,0.004547,0.008804,0.354797,0.12882,0.013707,0.310182,0.687058,3.022
RSTM-TLRW-x86,read_ro,0.004468,0.00868,0.356321,0.128376,0.013358,0.309321,0.687453,3.015
RSTM-TLRW-x86,read_ro,0.00554,0.010749,0.359423,0.129806,0.013345,0.317803,0.703056,3.025
RSTM-TLRW-x86,read_ro,0.004555,0.00878,0.355371,0.128654,0.013486,0.309823,0.687342,3.016
RSTM-TLRW-x86,read_ro,0.004539,0.008659,0.355086,0.128565,0.013289,0.309715,0.686676,3.009
RSTM-TLRW-x86,read_ro,0.004572,0.008754,0.359305,0.128448,0.013476,0.309022,0.690301,3.018
RSTM-TLRW-x86,read_ro,0.004693,0.008739,0.360902,0.128624,0.013456,0.309456,0.692429,3.036
RSTM-TLRW-x86,read_ro,0.004512,0.008713,0.358689,0.128758,0.013343,0.309967,0.690453,3.017
RSTM-TLRW-x86,read_ro,0.004426,0.008756,0.366873,0.140673,0.014122,0.338565,0.727538,3.083
RSTM-TLRW-x86,read_ro,0.004505,0.008668,0.357054,0.128611,0.01345,0.309962,0.688962,3.016
RSTM-TLRW-x86,read_ro,0.004545,0.008676,0.353551,0.128741,0.013336,0.309423,0.684774,3.017
RSTM-TLRW-x86,read_ro,0.00449,0.00867,0.358009,0.128632,0.01338,0.309153,0.689064,3.015
RSTM-TLRW-x86,read_ro,0.005468,0.010731,0.354938,0.128546,0.013428,0.309307,0.690037,3.026
RSTM-TLRW-x86,read_ro,0.004506,0.008672,0.353869,0.128721,0.013384,0.309435,0.685064,3.032
RSTM-TLRW-x86,read_ro,0.004517,0.008758,0.354763,0.128775,0.0135,0.309582,0.686396,3.027
RSTM-TLRW-x86,read_ro,0.004585,0.008786,0.354473,0.128528,0.013518,0.30929,0.685953,3.028
RSTM-TLRW-x86,read_ro,0.004561,0.008872,0.35525,0.128945,0.013893,0.310242,0.687618,3.026
RSTM-TLRW-x86,read_ro,0.004386,0.008673,0.352153,0.128598,0.013415,0.309934,0.684024,3.009
RSTM-TLRW-x86,read_ro,0.00461,0.008789,0.359943,0.128936,0.013489,0.309743,0.691713,3.052
RSTM-TLRW-x86,read_ro,0.004548,0.008763,0.352718,0.128786,0.013546,0.309687,0.684359,3.011
RSTM-TLRW-x86,read_ro,0.004568,0.008731,0.352782,0.128536,0.013551,0.310134,0.684978,3.021
RSTM-TLRW-x86,read_ro,0.004573,0.008742,0.376682,0.128403,0.013459,0.309379,0.708001,3.041
RSTM-TLRW-x86,read_ro,0.004481,0.008581,0.385158,0.129114,0.013329,0.309798,0.716637,3.045
RSTM-TLRW-x86,read_ro,0.004573,0.008738,0.358969,0.12881,0.013592,0.309956,0.690851,3.022
RSTM-TLRW-x86,read_ro,0.004587,0.008792,0.359475,0.128729,0.013501,0.309873,0.69152,3.033
RSTM-TLRW-x86,read_ro,0.004414,0.008682,0.381894,0.128628,0.013343,0.310608,0.714378,3.046
RSTM-TLRW-x86,read_ro,0.004592,0.008768,0.356731,0.128879,0.013495,0.310394,0.689211,3.029
RSTM-TLRW-x86,read_ro,0.004488,0.008643,0.356771,0.128916,0.013424,0.309934,0.68843,3.029
RSTM-TLRW-x86,read_ro,0.004581,0.008821,0.366728,0.12884,0.01343,0.309629,0.698398,3.034
RSTM-TLRW-x86,read_ro,0.004511,0.00876,0.355428,0.128841,0.013431,0.31009,0.687578,3.019
RSTM-TLRW-x86,read_ro,0.004523,0.008645,0.353817,0.129286,0.013392,0.310406,0.68612,3.019
RSTM-TLRW-x86,read_ro,0.00448,0.008645,0.355742,0.12878,0.013392,0.309699,0.687304,3.026
RSTM-TLRW-x86,read_ro,0.004461,0.008576,0.355987,0.128665,0.013329,0.309847,0.687495,3.017
RSTM-TLRW-x86,read_ro,0.004546,0.008722,0.357472,0.128999,0.013484,0.31013,0.689663,3.023
RSTM-TLRW-x86,read_ro,0.004662,0.009078,0.410561,0.145181,0.015236,0.349105,0.782527,3.341
RSTM-TLRW-x86,read_ro,0.004451,0.008723,0.353876,0.128864,0.013448,0.309684,0.685348,3.248
RSTM-TLRW-x86,read_ro,0.004449,0.008554,0.358243,0.128599,0.013369,0.309759,0.689606,3.019
RSTM-TLRW-x86,read_ro,0.004478,0.00861,0.357377,0.12899,0.013382,0.309835,0.688857,3.013
RSTM-TLRW-x86,read_ro,0.004468,0.008679,0.364305,0.128552,0.01347,0.310169,0.696291,3.028
RSTM-TLRW-x86,read_ro,0.004488,0.008712,0.355239,0.128875,0.013464,0.310265,0.687318,3.015
RSTM-TLRW-x86,read_ro,0.005603,0.011041,0.355195,0.12906,0.013381,0.309574,0.691433,3.028
RSTM-TLRW-x86,read_ro,0.004489,0.008558,0.351667,0.128706,0.013371,0.309049,0.682336,3.013
RSTM-TLRW-x86,read_ro,0.004513,0.008712,0.354794,0.128546,0.013476,0.309403,0.686138,3.023
RSTM-TLRW-x86,read_ro,0.00453,0.008661,0.359533,0.128612,0.013377,0.309864,0.691271,3.021
RSTM-TLRW-x86,read_ro,0.004437,0.008664,0.359836,0.132192,0.013501,0.32678,0.708323,3.036
RSTM-TLRW-x86,read_ro,0.004509,0.008604,0.357485,0.12867,0.013406,0.309546,0.688804,3.020
RSTM-TLRW-x86,read_ro,0.004452,0.00856,0.35154,0.128741,0.013368,0.309723,0.682928,3.018
RSTM-TLRW-x86,read_ro,0.004505,0.008593,0.356105,0.128682,0.013436,0.310179,0.687962,3.019
RSTM-TLRW-x86,read_ro,0.004476,0.00857,0.356066,0.128896,0.013412,0.310443,0.688204,3.016
RSTM-TLRW-x86,read_ro,0.00455,0.00868,0.357908,0.128759,0.013481,0.309969,0.689764,3.017
RSTM-TLRW-x86,read_ro,0.00452,0.008748,0.355392,0.128745,0.013303,0.309569,0.686738,3.017
RSTM-TLRW-x86,read_ro,0.004423,0.008718,0.360822,0.128454,0.013479,0.309499,0.692403,3.028
RSTM-TLRW-x86,read_ro,0.004428,0.008649,0.355946,0.128895,0.013541,0.309828,0.687488,3.018
RSTM-TLRW-x86,read_ro,0.004539,0.008686,0.353279,0.128542,0.013466,0.309553,0.684933,3.016
RSTM-TLRW-x86,read_ro,0.004544,0.00874,0.355209,0.128455,0.013458,0.30981,0.686823,3.014
RSTM-TLRW-x86,read_ro,0.0046,0.008672,0.359084,0.12872,0.013472,0.309693,0.690724,3.033
RSTM-TLRW-x86,read_ro,0.004485,0.008611,0.355342,0.128235,0.013366,0.308573,0.685576,3.009
RSTM-TLRW-x86,read_ro,0.005789,0.010659,0.36182,0.128436,0.013306,0.30923,0.697045,3.026
RSTM-TLRW-x86,read_ro,0.004433,0.008679,0.35559,0.12883,0.013524,0.310164,0.687535,3.019
RSTM-TLRW-x86,read_ro,0.004593,0.008697,0.359313,0.128679,0.013456,0.309381,0.690609,3.030
RSTM-TLRW-x86,read_ro,0.00445,0.008631,0.356499,0.128847,0.013351,0.310507,0.688783,3.017
RSTM-TLRW-x86,read_ro,0.004494,0.008689,0.355798,0.12912,0.013456,0.31027,0.687965,3.024
RSTM-TLRW-x86,read_ro,0.004521,0.008671,0.358197,0.129022,0.013514,0.310071,0.690087,3.020
RSTM-TLRW-x86,read_ro,0.004526,0.008679,0.358959,0.129243,0.013445,0.310276,0.69116,3.020
RSTM-TLRW-x86,read_ro,0.004491,0.008669,0.355423,0.128792,0.013467,0.309988,0.687182,3.016
RSTM-TLRW-x86,read_ro,0.004483,0.008638,0.365333,0.140376,0.014195,0.337833,0.725158,3.059
RSTM-TLRW-x86,read_ro,0.004546,0.008661,0.351271,0.128527,0.013454,0.309916,0.682996,3.026
RSTM-TLRW-x86,read_ro,0.004441,0.008511,0.363053,0.140358,0.014069,0.337567,0.722347,3.052
RSTM-TLRW-x86,read_ro,0.004528,0.008715,0.355769,0.128595,0.013469,0.31055,0.688294,3.028
RSTM-TLRW-x86,read_ro,0.004602,0.008661,0.357501,0.129547,0.013599,0.312083,0.691525,3.052
RSTM-TLRW-x86,read_ro,0.004444,0.008572,0.355106,0.128758,0.013391,0.309779,0.686495,3.021
RSTM-TLRW-x86,read_ro,0.004494,0.00857,0.354134,0.129054,0.013371,0.310464,0.686383,3.030
RSTM-TLRW-x86,read_ro,0.004546,0.008706,0.358119,0.128542,0.013409,0.309091,0.689074,3.025
RSTM-TLRW-x86,read_ro,0.004508,0.008622,0.358913,0.128461,0.013428,0.309318,0.689906,3.021
RSTM-TLRW-x86,read_ro,0.004554,0.008589,0.354507,0.136986,0.013377,0.328677,0.704895,3.043
RSTM-TLRW-x86,read_ro,0.004509,0.008677,0.359078,0.128749,0.013496,0.317866,0.69883,3.035
RSTM-TLRW-x86,read_ro,0.004514,0.008778,0.353633,0.128231,0.013635,0.309016,0.684667,3.023
RSTM-TLRW-x86,read_ro,0.005627,0.010895,0.361557,0.129036,0.013498,0.310203,0.698313,3.045
RSTM-TLRW-x86,read_ro,0.004457,0.00858,0.355142,0.128583,0.013365,0.30915,0.685844,3.014
