algo-arch,method,compile_src,clean_dot_cfg,create_po_graph,full_elim,opt,run,real
RSTM-TLRW-arm,write_ro,0.004674,0.009095,0.578528,0.241321,0.422499,1.023578,3.375
RSTM-TLRW-arm,write_ro,0.004699,0.009167,0.571815,0.233123,0.414827,1.009718,3.371
RSTM-TLRW-arm,write_ro,0.004503,0.00885,0.575499,0.232803,0.414057,1.0121,3.359
RSTM-TLRW-arm,write_ro,0.004564,0.008844,0.574748,0.233235,0.414522,1.011859,3.351
RSTM-TLRW-arm,write_ro,0.004597,0.008819,0.577312,0.233297,0.414844,1.014807,3.368
RSTM-TLRW-arm,write_ro,0.004674,0.008857,0.583426,0.233436,0.415341,1.021394,3.370
RSTM-TLRW-arm,write_ro,0.004623,0.008941,0.572741,0.232817,0.414147,1.009691,3.355
RSTM-TLRW-arm,write_ro,0.004636,0.008887,0.574624,0.233754,0.415415,1.012772,3.356
RSTM-TLRW-arm,write_ro,0.004606,0.008882,0.569785,0.233257,0.4148,1.007238,3.359
RSTM-TLRW-arm,write_ro,0.004662,0.009024,0.57747,0.233023,0.414304,1.014624,3.362
RSTM-TLRW-arm,write_ro,0.005711,0.011297,0.574629,0.232644,0.414106,1.015669,3.368
RSTM-TLRW-arm,write_ro,0.004616,0.008845,0.572059,0.232975,0.414092,1.008601,3.345
RSTM-TLRW-arm,write_ro,0.004624,0.008903,0.571017,0.233314,0.414619,1.008294,3.354
RSTM-TLRW-arm,write_ro,0.004622,0.008959,0.576831,0.23255,0.414061,1.013625,3.360
RSTM-TLRW-arm,write_ro,0.004584,0.008963,0.589276,0.233371,0.415263,1.027164,3.388
RSTM-TLRW-arm,write_ro,0.004604,0.008834,0.574812,0.233086,0.414839,1.012382,3.372
RSTM-TLRW-arm,write_ro,0.004646,0.008947,0.570988,0.232416,0.413141,1.006885,3.357
RSTM-TLRW-arm,write_ro,0.004623,0.00895,0.580018,0.252563,0.434403,1.037216,3.395
RSTM-TLRW-arm,write_ro,0.004532,0.008664,0.577475,0.234103,0.419078,1.018561,3.349
RSTM-TLRW-arm,write_ro,0.004457,0.00869,0.577736,0.23298,0.414065,1.014112,3.347
RSTM-TLRW-arm,write_ro,0.004539,0.008667,0.579607,0.233008,0.414228,1.015674,3.340
RSTM-TLRW-arm,write_ro,0.004608,0.008772,0.572018,0.233227,0.414157,1.008697,3.348
RSTM-TLRW-arm,write_ro,0.004553,0.008781,0.572449,0.23354,0.414999,1.009794,3.350
RSTM-TLRW-arm,write_ro,0.005701,0.011187,0.57378,0.232235,0.413819,1.014688,3.350
RSTM-TLRW-arm,write_ro,0.004424,0.008714,0.576352,0.232707,0.41428,1.012794,3.343
RSTM-TLRW-arm,write_ro,0.004571,0.008703,0.589983,0.243062,0.42458,1.036437,3.376
RSTM-TLRW-arm,write_ro,0.004564,0.008696,0.57587,0.233418,0.415099,1.013168,3.367
RSTM-TLRW-arm,write_ro,0.004476,0.008734,0.572026,0.233278,0.414741,1.008972,3.341
RSTM-TLRW-arm,write_ro,0.004534,0.008666,0.577442,0.233142,0.41445,1.013949,3.338
RSTM-TLRW-arm,write_ro,0.004603,0.008997,0.578465,0.232788,0.413891,1.014843,3.377
RSTM-TLRW-arm,write_ro,0.004537,0.008742,0.573938,0.234684,0.416059,1.011967,3.350
RSTM-TLRW-arm,write_ro,0.004547,0.008821,0.577867,0.232615,0.414451,1.014809,3.370
RSTM-TLRW-arm,write_ro,0.004587,0.008878,0.575722,0.232442,0.413602,1.011818,3.348
RSTM-TLRW-arm,write_ro,0.005858,0.011138,0.573609,0.232309,0.413579,1.014216,3.343
RSTM-TLRW-arm,write_ro,0.004566,0.008697,0.574062,0.25137,0.434739,1.031088,3.368
RSTM-TLRW-arm,write_ro,0.004579,0.008792,0.579944,0.232891,0.414388,1.016736,3.351
RSTM-TLRW-arm,write_ro,0.004501,0.008702,0.576028,0.233052,0.414322,1.012475,3.341
RSTM-TLRW-arm,write_ro,0.004487,0.008704,0.579056,0.233823,0.414964,1.016242,3.356
RSTM-TLRW-arm,write_ro,0.004521,0.008681,0.575097,0.232972,0.414284,1.011498,3.346
RSTM-TLRW-arm,write_ro,0.004579,0.008772,0.572332,0.232836,0.413977,1.00872,3.343
RSTM-TLRW-arm,write_ro,0.004543,0.008742,0.57712,0.233542,0.4152,1.014605,3.349
RSTM-TLRW-arm,write_ro,0.004533,0.008681,0.575667,0.23282,0.414379,1.012137,3.345
RSTM-TLRW-arm,write_ro,0.004523,0.008637,0.576902,0.232939,0.414101,1.013019,3.340
RSTM-TLRW-arm,write_ro,0.004608,0.008775,0.576925,0.232841,0.414503,1.013929,3.348
RSTM-TLRW-arm,write_ro,0.004557,0.008758,0.576599,0.23341,0.415029,1.014019,3.356
RSTM-TLRW-arm,write_ro,0.004493,0.008675,0.574474,0.233789,0.415079,1.011704,3.343
RSTM-TLRW-arm,write_ro,0.004643,0.008752,0.583014,0.232784,0.414602,1.019961,3.348
RSTM-TLRW-arm,write_ro,0.004592,0.008778,0.59263,0.233221,0.414341,1.029561,3.368
RSTM-TLRW-arm,write_ro,0.004565,0.0088,0.58422,0.233242,0.414373,1.020745,3.354
RSTM-TLRW-arm,write_ro,0.004477,0.008665,0.577059,0.23365,0.414895,1.013917,3.338
RSTM-TLRW-arm,write_ro,0.00456,0.008757,0.576623,0.233036,0.414244,1.01306,3.354
RSTM-TLRW-arm,write_ro,0.004581,0.008796,0.579288,0.232396,0.41361,1.015087,3.353
RSTM-TLRW-arm,write_ro,0.004561,0.008792,0.577691,0.232569,0.413288,1.013183,3.353
RSTM-TLRW-arm,write_ro,0.004436,0.008646,0.571917,0.232626,0.413754,1.007503,3.349
RSTM-TLRW-arm,write_ro,0.004526,0.008732,0.583087,0.233365,0.415009,1.020592,3.353
RSTM-TLRW-arm,write_ro,0.00435,0.008458,0.657635,0.265202,0.470876,1.150059,3.672
RSTM-TLRW-arm,write_ro,0.004569,0.008634,0.581916,0.236111,0.417825,1.021746,3.377
RSTM-TLRW-arm,write_ro,0.004502,0.008616,0.572829,0.232942,0.414028,1.008674,3.340
RSTM-TLRW-arm,write_ro,0.004413,0.008563,0.576953,0.232464,0.413696,1.012156,3.341
RSTM-TLRW-arm,write_ro,0.004488,0.008563,0.574258,0.233349,0.415506,1.011364,3.342
RSTM-TLRW-arm,write_ro,0.004506,0.00873,0.575509,0.23294,0.414446,1.012072,3.345
RSTM-TLRW-arm,write_ro,0.00564,0.011017,0.574802,0.23232,0.413555,1.015139,3.349
RSTM-TLRW-arm,write_ro,0.004401,0.008621,0.570095,0.232424,0.413238,1.005075,3.328
RSTM-TLRW-arm,write_ro,0.004512,0.008536,0.583523,0.23322,0.414674,1.020066,3.368
RSTM-TLRW-arm,write_ro,0.004563,0.008599,0.583457,0.232983,0.414829,1.020338,3.364
RSTM-TLRW-arm,write_ro,0.004541,0.008568,0.577751,0.233245,0.414857,1.014717,3.356
RSTM-TLRW-arm,write_ro,0.004524,0.00858,0.575127,0.233289,0.414985,1.011784,3.335
RSTM-TLRW-arm,write_ro,0.004482,0.008662,0.576046,0.234042,0.415804,1.013909,3.352
RSTM-TLRW-arm,write_ro,0.004472,0.008639,0.571999,0.233369,0.41468,1.008703,3.339
RSTM-TLRW-arm,write_ro,0.004637,0.008697,0.572497,0.232929,0.413832,1.008624,3.342
RSTM-TLRW-arm,write_ro,0.004533,0.008695,0.57424,0.232599,0.414419,1.010771,3.353
RSTM-TLRW-arm,write_ro,0.004534,0.008684,0.583955,0.233811,0.415594,1.021721,3.356
RSTM-TLRW-arm,write_ro,0.004573,0.008738,0.580648,0.233436,0.415166,1.017927,3.358
RSTM-TLRW-arm,write_ro,0.004438,0.008651,0.572145,0.23252,0.413776,1.007928,3.343
RSTM-TLRW-arm,write_ro,0.004516,0.008548,0.587487,0.232948,0.414084,1.023407,3.354
RSTM-TLRW-arm,write_ro,0.004505,0.008649,0.576946,0.232309,0.413397,1.012405,3.339
RSTM-TLRW-arm,write_ro,0.0044,0.008556,0.572116,0.23296,0.41457,1.008329,3.333
RSTM-TLRW-arm,write_ro,0.004472,0.008604,0.573812,0.233222,0.414904,1.010755,3.335
RSTM-TLRW-arm,write_ro,0.005753,0.010762,0.577656,0.232715,0.413386,1.017665,3.347
RSTM-TLRW-arm,write_ro,0.004503,0.008644,0.572496,0.233101,0.414447,1.009051,3.343
RSTM-TLRW-arm,write_ro,0.004527,0.008676,0.586282,0.23324,0.415642,1.024091,3.355
RSTM-TLRW-arm,write_ro,0.00449,0.008547,0.57474,0.233224,0.414922,1.011302,3.336
RSTM-TLRW-arm,write_ro,0.004517,0.008598,0.579155,0.232881,0.414718,1.015734,3.341
RSTM-TLRW-arm,write_ro,0.004449,0.008571,0.588116,0.233034,0.414603,1.024541,3.348
RSTM-TLRW-arm,write_ro,0.004512,0.008593,0.580236,0.233321,0.415528,1.017967,3.360
RSTM-TLRW-arm,write_ro,0.004504,0.008581,0.597151,0.232996,0.426617,1.045679,3.376
RSTM-TLRW-arm,write_ro,0.004497,0.008619,0.577984,0.232359,0.414455,1.014498,3.339
RSTM-TLRW-arm,write_ro,0.00449,0.008582,0.573843,0.232998,0.414405,1.01028,3.335
RSTM-TLRW-arm,write_ro,0.004432,0.008374,0.571106,0.232956,0.414454,1.007297,3.349
RSTM-TLRW-arm,write_ro,0.004449,0.008573,0.573721,0.233625,0.415084,1.010805,3.335
RSTM-TLRW-arm,write_ro,0.004517,0.008587,0.591281,0.233068,0.415096,1.028266,3.350
RSTM-TLRW-arm,write_ro,0.004508,0.008602,0.581478,0.232859,0.413996,1.017469,3.343
RSTM-TLRW-arm,write_ro,0.004502,0.008549,0.582629,0.23321,0.41516,1.01965,3.350
RSTM-TLRW-arm,write_ro,0.004518,0.008726,0.584604,0.233232,0.414688,1.021523,3.361
RSTM-TLRW-arm,write_ro,0.004529,0.008623,0.570554,0.232472,0.413917,1.006374,3.338
RSTM-TLRW-arm,write_ro,0.004814,0.008654,0.579526,0.23331,0.415756,1.017783,3.352
RSTM-TLRW-arm,write_ro,0.004475,0.00867,0.576276,0.235941,0.429851,1.028174,3.363
RSTM-TLRW-arm,write_ro,0.004388,0.008579,0.574186,0.232697,0.414235,1.010233,3.330
RSTM-TLRW-arm,write_ro,0.00431,0.008289,0.572915,0.231469,0.411921,1.006136,3.339
RSTM-TLRW-arm,write_ro,0.004496,0.00858,0.577508,0.233323,0.414509,1.013933,3.337
