algo-arch,method,compile_src,clean_dot_cfg,create_po_graph,full_elim,lp,opt,run,real
RSTM-TLRW-x86,read_rw,0.00462,0.008981,0.418082,0.128746,0.013581,0.317785,0.758398,3.112
RSTM-TLRW-x86,read_rw,0.004527,0.008801,0.419941,0.128507,0.013453,0.317156,0.759227,3.103
RSTM-TLRW-x86,read_rw,0.004582,0.008861,0.42125,0.129535,0.013505,0.318567,0.762111,3.108
RSTM-TLRW-x86,read_rw,0.004629,0.008837,0.417233,0.128567,0.013492,0.317395,0.756925,3.111
RSTM-TLRW-x86,read_rw,0.004648,0.008891,0.417873,0.128724,0.013504,0.317965,0.758276,3.108
RSTM-TLRW-x86,read_rw,0.004619,0.008829,0.416344,0.128493,0.0135,0.316565,0.755229,3.108
RSTM-TLRW-x86,read_rw,0.004647,0.008885,0.421516,0.12869,0.013562,0.317568,0.761416,3.111
RSTM-TLRW-x86,read_rw,0.004626,0.008938,0.42454,0.128978,0.013645,0.318248,0.765098,3.112
RSTM-TLRW-x86,read_rw,0.004589,0.008856,0.432215,0.128514,0.013421,0.316957,0.771352,3.117
RSTM-TLRW-x86,read_rw,0.004605,0.008877,0.418277,0.128704,0.013619,0.31733,0.757984,3.105
RSTM-TLRW-x86,read_rw,0.004664,0.008936,0.41585,0.128615,0.013605,0.317492,0.75572,3.098
RSTM-TLRW-x86,read_rw,0.004627,0.008837,0.418416,0.129514,0.013527,0.31872,0.759603,3.110
RSTM-TLRW-x86,read_rw,0.004756,0.008863,0.42102,0.128369,0.013465,0.316824,0.760171,3.119
RSTM-TLRW-x86,read_rw,0.00463,0.008853,0.424329,0.128561,0.013566,0.319651,0.76641,3.109
RSTM-TLRW-x86,read_rw,0.004639,0.008917,0.417976,0.128846,0.013596,0.31788,0.75829,3.111
RSTM-TLRW-x86,read_rw,0.004716,0.008855,0.41863,0.1287,0.013484,0.317878,0.758924,3.126
RSTM-TLRW-x86,read_rw,0.004574,0.008807,0.421622,0.128325,0.013487,0.317244,0.761125,3.102
RSTM-TLRW-x86,read_rw,0.004628,0.008874,0.421034,0.128938,0.013446,0.317671,0.760955,3.104
RSTM-TLRW-x86,read_rw,0.00473,0.008817,0.417389,0.128909,0.01352,0.318313,0.757967,3.112
RSTM-TLRW-x86,read_rw,0.004503,0.008676,0.417014,0.129238,0.013385,0.318047,0.756929,3.092
RSTM-TLRW-x86,read_rw,0.004551,0.008736,0.414939,0.129388,0.013511,0.318428,0.755347,3.082
RSTM-TLRW-x86,read_rw,0.00452,0.008768,0.418177,0.128449,0.013481,0.31731,0.757564,3.095
RSTM-TLRW-x86,read_rw,0.004493,0.008711,0.414515,0.128782,0.014145,0.320425,0.756957,3.087
RSTM-TLRW-x86,read_rw,0.004506,0.008783,0.417249,0.128663,0.013487,0.317467,0.756751,3.098
RSTM-TLRW-x86,read_rw,0.004493,0.008674,0.418368,0.129174,0.013368,0.318078,0.758231,3.096
RSTM-TLRW-x86,read_rw,0.004544,0.008692,0.4171,0.128358,0.013392,0.316654,0.755697,3.083
RSTM-TLRW-x86,read_rw,0.004487,0.008692,0.417485,0.129478,0.013402,0.318169,0.75761,3.095
RSTM-TLRW-x86,read_rw,0.004545,0.008749,0.420807,0.128707,0.013487,0.31744,0.760322,3.117
RSTM-TLRW-x86,read_rw,0.004511,0.00868,0.418391,0.128697,0.013387,0.317942,0.758226,3.092
RSTM-TLRW-x86,read_rw,0.004586,0.008738,0.415001,0.12887,0.013476,0.317165,0.754271,3.087
RSTM-TLRW-x86,read_rw,0.004514,0.00879,0.415546,0.128961,0.013592,0.318584,0.756088,3.090
RSTM-TLRW-x86,read_rw,0.004546,0.008761,0.417236,0.128836,0.013431,0.317048,0.756304,3.090
RSTM-TLRW-x86,read_rw,0.004509,0.008667,0.414026,0.128652,0.013357,0.316795,0.752614,3.078
RSTM-TLRW-x86,read_rw,0.004548,0.008674,0.415017,0.12882,0.013385,0.317585,0.754542,3.084
RSTM-TLRW-x86,read_rw,0.004574,0.008643,0.419004,0.128556,0.013372,0.316829,0.757632,3.105
RSTM-TLRW-x86,read_rw,0.004552,0.008762,0.420113,0.128968,0.013453,0.317845,0.760051,3.093
RSTM-TLRW-x86,read_rw,0.004613,0.00878,0.421716,0.129508,0.01346,0.318679,0.762576,3.094
RSTM-TLRW-x86,read_rw,0.004567,0.008763,0.419052,0.128984,0.013461,0.317688,0.758776,3.099
RSTM-TLRW-x86,read_rw,0.004566,0.008696,0.426739,0.128895,0.013336,0.317844,0.766415,3.096
RSTM-TLRW-x86,read_rw,0.004551,0.008715,0.41584,0.12862,0.01349,0.31727,0.755213,3.092
RSTM-TLRW-x86,read_rw,0.004529,0.008689,0.419813,0.128841,0.013323,0.316969,0.758648,3.086
RSTM-TLRW-x86,read_rw,0.004576,0.008756,0.418916,0.128562,0.013556,0.317215,0.758126,3.108
RSTM-TLRW-x86,read_rw,0.004535,0.00876,0.421087,0.128611,0.013502,0.31721,0.760448,3.100
RSTM-TLRW-x86,read_rw,0.00465,0.008788,0.420341,0.128499,0.013627,0.31743,0.76006,3.114
RSTM-TLRW-x86,read_rw,0.004558,0.008721,0.416916,0.128923,0.013461,0.317799,0.756767,3.087
RSTM-TLRW-x86,read_rw,0.004533,0.008704,0.421714,0.128869,0.013404,0.317465,0.761132,3.085
RSTM-TLRW-x86,read_rw,0.004573,0.008802,0.415717,0.128804,0.013794,0.317605,0.755428,3.118
RSTM-TLRW-x86,read_rw,0.004553,0.008839,0.417388,0.140666,0.014223,0.342918,0.78263,3.126
RSTM-TLRW-x86,read_rw,0.004591,0.008822,0.416346,0.128965,0.013479,0.318158,0.756534,3.090
RSTM-TLRW-x86,read_rw,0.004552,0.008818,0.420561,0.129071,0.013484,0.317671,0.760414,3.098
RSTM-TLRW-x86,read_rw,0.00454,0.008772,0.415124,0.128915,0.013559,0.317711,0.754827,3.089
RSTM-TLRW-x86,read_rw,0.004529,0.008799,0.422282,0.129098,0.013488,0.317809,0.762241,3.102
RSTM-TLRW-x86,read_rw,0.004469,0.00876,0.423506,0.128363,0.013507,0.317135,0.762505,3.090
RSTM-TLRW-x86,read_rw,0.004505,0.008728,0.415422,0.129018,0.013375,0.317756,0.754996,3.082
RSTM-TLRW-x86,read_rw,0.004558,0.008698,0.41331,0.128601,0.013377,0.316941,0.75204,3.080
RSTM-TLRW-x86,read_rw,0.0044,0.008659,0.423623,0.129292,0.013386,0.318529,0.763965,3.107
RSTM-TLRW-x86,read_rw,0.004519,0.008794,0.462919,0.143754,0.014786,0.353548,0.838759,3.378
RSTM-TLRW-x86,read_rw,0.004546,0.008641,0.413191,0.128968,0.01339,0.317459,0.752801,3.081
RSTM-TLRW-x86,read_rw,0.004415,0.008595,0.418098,0.128467,0.013354,0.316882,0.756821,3.079
RSTM-TLRW-x86,read_rw,0.004477,0.008618,0.417978,0.128683,0.013359,0.317581,0.757601,3.086
RSTM-TLRW-x86,read_rw,0.004516,0.008653,0.417168,0.128564,0.013461,0.317054,0.755996,3.084
RSTM-TLRW-x86,read_rw,0.004442,0.008577,0.433724,0.128926,0.013385,0.317411,0.772818,3.098
RSTM-TLRW-x86,read_rw,0.004499,0.00865,0.419913,0.128703,0.013448,0.317853,0.759462,3.085
RSTM-TLRW-x86,read_rw,0.004532,0.008679,0.419202,0.128888,0.013467,0.318143,0.759278,3.091
RSTM-TLRW-x86,read_rw,0.004533,0.008704,0.41662,0.128957,0.013521,0.317807,0.756389,3.097
RSTM-TLRW-x86,read_rw,0.004549,0.00869,0.416539,0.128862,0.01348,0.317963,0.756373,3.087
RSTM-TLRW-x86,read_rw,0.004503,0.008531,0.415654,0.128935,0.01337,0.31858,0.755865,3.084
RSTM-TLRW-x86,read_rw,0.00453,0.008575,0.416572,0.12851,0.013406,0.31665,0.754906,3.084
RSTM-TLRW-x86,read_rw,0.004415,0.008577,0.416739,0.128665,0.013327,0.326227,0.764482,3.089
RSTM-TLRW-x86,read_rw,0.004452,0.008632,0.414088,0.129054,0.013347,0.318054,0.753907,3.085
RSTM-TLRW-x86,read_rw,0.00449,0.008649,0.418401,0.128666,0.013457,0.317353,0.757598,3.085
RSTM-TLRW-x86,read_rw,0.00446,0.008569,0.417317,0.128735,0.01344,0.31728,0.756316,3.089
RSTM-TLRW-x86,read_rw,0.00454,0.008637,0.419933,0.128482,0.013468,0.317258,0.759091,3.098
RSTM-TLRW-x86,read_rw,0.004506,0.008775,0.41862,0.129288,0.013785,0.318453,0.759177,3.091
RSTM-TLRW-x86,read_rw,0.004501,0.008854,0.420273,0.128761,0.01356,0.317669,0.759951,3.092
RSTM-TLRW-x86,read_rw,0.004527,0.008695,0.413226,0.128692,0.01342,0.317343,0.752507,3.083
RSTM-TLRW-x86,read_rw,0.004457,0.00858,0.41706,0.128465,0.013328,0.316554,0.755395,3.095
RSTM-TLRW-x86,read_rw,0.004574,0.008695,0.417892,0.128664,0.013503,0.317615,0.757373,3.092
RSTM-TLRW-x86,read_rw,0.004518,0.008647,0.422815,0.128787,0.013461,0.317857,0.762383,3.106
RSTM-TLRW-x86,read_rw,0.004484,0.008637,0.416128,0.128923,0.013742,0.31872,0.756631,3.097
RSTM-TLRW-x86,read_rw,0.004413,0.008673,0.418482,0.128785,0.013463,0.317552,0.757857,3.087
RSTM-TLRW-x86,read_rw,0.004449,0.008642,0.419934,0.128603,0.01347,0.316889,0.758405,3.087
RSTM-TLRW-x86,read_rw,0.004358,0.008594,0.422314,0.128679,0.013461,0.31727,0.761214,3.087
RSTM-TLRW-x86,read_rw,0.004488,0.008644,0.414674,0.12899,0.013508,0.317907,0.754324,3.086
RSTM-TLRW-x86,read_rw,0.004509,0.008534,0.415828,0.128718,0.013392,0.31713,0.754534,3.083
RSTM-TLRW-x86,read_rw,0.004467,0.008547,0.413026,0.128916,0.013487,0.31839,0.75301,3.078
RSTM-TLRW-x86,read_rw,0.00451,0.008712,0.419781,0.12844,0.013466,0.317298,0.758889,3.088
RSTM-TLRW-x86,read_rw,0.004479,0.008579,0.420369,0.132253,0.014143,0.323503,0.765548,3.088
RSTM-TLRW-x86,read_rw,0.004503,0.008542,0.418572,0.128834,0.01339,0.317982,0.758239,3.091
RSTM-TLRW-x86,read_rw,0.004522,0.008658,0.423455,0.128832,0.013453,0.318144,0.763489,3.098
RSTM-TLRW-x86,read_rw,0.004526,0.008679,0.419866,0.128848,0.013444,0.31744,0.759053,3.086
RSTM-TLRW-x86,read_rw,0.004549,0.008711,0.423419,0.128529,0.013465,0.318118,0.763452,3.091
RSTM-TLRW-x86,read_rw,0.00447,0.008638,0.416287,0.128725,0.013533,0.317104,0.755309,3.084
RSTM-TLRW-x86,read_rw,0.004484,0.008607,0.413786,0.128544,0.013467,0.316829,0.752181,3.076
RSTM-TLRW-x86,read_rw,0.004417,0.008642,0.416036,0.140506,0.014057,0.339716,0.777478,3.100
RSTM-TLRW-x86,read_rw,0.004581,0.008583,0.420153,0.129011,0.013357,0.317481,0.759499,3.111
RSTM-TLRW-x86,read_rw,0.004403,0.008677,0.419805,0.128607,0.01336,0.316766,0.758214,3.087
RSTM-TLRW-x86,read_rw,0.004529,0.008567,0.414159,0.129123,0.013432,0.317894,0.753853,3.089
RSTM-TLRW-x86,read_rw,0.00456,0.008745,0.419454,0.129033,0.013488,0.318097,0.759603,3.088
RSTM-TLRW-x86,read_rw,0.004442,0.008581,0.415948,0.12907,0.01346,0.318674,0.756369,3.085
