algo-arch,method,compile_src,clean_dot_cfg,create_po_graph,full_elim,lp,opt,run,real
RSTM-TLRW-arm,read_rw,0.004661,0.008875,0.417988,0.128304,0.013915,0.317175,0.757571,3.116
RSTM-TLRW-arm,read_rw,0.004668,0.008928,0.417693,0.128619,0.013605,0.316639,0.756825,3.115
RSTM-TLRW-arm,read_rw,0.004612,0.008859,0.420101,0.128082,0.013521,0.316414,0.758881,3.104
RSTM-TLRW-arm,read_rw,0.004635,0.00893,0.417761,0.140021,0.014375,0.342298,0.78264,3.131
RSTM-TLRW-arm,read_rw,0.004685,0.008919,0.419159,0.128518,0.013693,0.317375,0.759058,3.107
RSTM-TLRW-arm,read_rw,0.004617,0.009103,0.418705,0.128352,0.01361,0.316685,0.757922,3.107
RSTM-TLRW-arm,read_rw,0.004681,0.008925,0.416506,0.128175,0.013595,0.316792,0.755742,3.104
RSTM-TLRW-arm,read_rw,0.0046,0.008857,0.415734,0.128406,0.013517,0.316426,0.75439,3.103
RSTM-TLRW-arm,read_rw,0.004681,0.00891,0.423983,0.12876,0.013505,0.316371,0.762664,3.103
RSTM-TLRW-arm,read_rw,0.004706,0.008939,0.419425,0.128429,0.013693,0.31645,0.758432,3.107
RSTM-TLRW-arm,read_rw,0.004666,0.00893,0.416139,0.128456,0.013654,0.316212,0.754698,3.100
RSTM-TLRW-arm,read_rw,0.004651,0.008859,0.420839,0.128374,0.013525,0.315862,0.75889,3.097
RSTM-TLRW-arm,read_rw,0.004689,0.008946,0.417225,0.128306,0.013605,0.315744,0.755498,3.101
RSTM-TLRW-arm,read_rw,0.004618,0.008837,0.414217,0.128302,0.013515,0.316434,0.753042,3.105
RSTM-TLRW-arm,read_rw,0.004639,0.008946,0.420612,0.128599,0.013616,0.316074,0.759007,3.113
RSTM-TLRW-arm,read_rw,0.004614,0.008892,0.415118,0.130596,0.013527,0.319234,0.756602,3.097
RSTM-TLRW-arm,read_rw,0.004662,0.008939,0.41842,0.128186,0.013689,0.31651,0.757288,3.099
RSTM-TLRW-arm,read_rw,0.004657,0.008936,0.418832,0.128134,0.013593,0.316406,0.757601,3.123
RSTM-TLRW-arm,read_rw,0.0045,0.008666,0.41513,0.12848,0.013393,0.316474,0.753547,3.081
RSTM-TLRW-arm,read_rw,0.004554,0.008742,0.421522,0.12817,0.013398,0.316055,0.759428,3.091
RSTM-TLRW-arm,read_rw,0.004549,0.008715,0.415872,0.128473,0.013444,0.316938,0.754876,3.083
RSTM-TLRW-arm,read_rw,0.004585,0.008774,0.419639,0.12838,0.01351,0.315895,0.757487,3.095
RSTM-TLRW-arm,read_rw,0.004576,0.008747,0.419652,0.128726,0.013555,0.317592,0.759458,3.094
RSTM-TLRW-arm,read_rw,0.004553,0.008693,0.418849,0.128308,0.013344,0.315529,0.756186,3.104
RSTM-TLRW-arm,read_rw,0.004509,0.008667,0.417908,0.128379,0.013381,0.316283,0.756123,3.091
RSTM-TLRW-arm,read_rw,0.004693,0.008898,0.418378,0.128338,0.013661,0.317227,0.758016,3.106
RSTM-TLRW-arm,read_rw,0.004571,0.008756,0.414817,0.12825,0.013573,0.317489,0.754404,3.096
RSTM-TLRW-arm,read_rw,0.004575,0.00869,0.41723,0.128496,0.01356,0.316782,0.756034,3.086
RSTM-TLRW-arm,read_rw,0.004518,0.008791,0.41699,0.128562,0.013536,0.316937,0.755911,3.084
RSTM-TLRW-arm,read_rw,0.004497,0.008712,0.416104,0.128406,0.013397,0.316369,0.75429,3.086
RSTM-TLRW-arm,read_rw,0.004555,0.008775,0.420168,0.128479,0.01352,0.317187,0.759434,3.094
RSTM-TLRW-arm,read_rw,0.004557,0.008746,0.420329,0.128744,0.013672,0.316998,0.759475,3.100
RSTM-TLRW-arm,read_rw,0.004451,0.008715,0.418843,0.128356,0.013372,0.316309,0.757061,3.083
RSTM-TLRW-arm,read_rw,0.004523,0.008715,0.41475,0.128256,0.013516,0.31605,0.75268,3.084
RSTM-TLRW-arm,read_rw,0.004524,0.008737,0.418765,0.128482,0.013502,0.316046,0.756832,3.094
RSTM-TLRW-arm,read_rw,0.004689,0.008774,0.418918,0.128348,0.013488,0.31681,0.757979,3.104
RSTM-TLRW-arm,read_rw,0.004495,0.008665,0.417492,0.128414,0.013473,0.316945,0.756345,3.085
RSTM-TLRW-arm,read_rw,0.004541,0.008697,0.416217,0.12875,0.013459,0.317217,0.755307,3.082
RSTM-TLRW-arm,read_rw,0.004501,0.008672,0.423985,0.128402,0.013463,0.316284,0.762073,3.100
RSTM-TLRW-arm,read_rw,0.004561,0.008771,0.413629,0.12856,0.013518,0.31714,0.752775,3.084
RSTM-TLRW-arm,read_rw,0.004577,0.008763,0.415191,0.128254,0.013491,0.316412,0.753541,3.104
RSTM-TLRW-arm,read_rw,0.004524,0.008601,0.41144,0.128386,0.013389,0.316681,0.749967,3.083
RSTM-TLRW-arm,read_rw,0.004535,0.008697,0.417621,0.128533,0.01342,0.316611,0.756025,3.084
RSTM-TLRW-arm,read_rw,0.00452,0.00872,0.414901,0.128176,0.013565,0.315622,0.752527,3.092
RSTM-TLRW-arm,read_rw,0.004495,0.008634,0.423464,0.128635,0.013442,0.316961,0.762096,3.092
RSTM-TLRW-arm,read_rw,0.004566,0.008707,0.420817,0.128469,0.013448,0.31624,0.759397,3.095
RSTM-TLRW-arm,read_rw,0.004479,0.008724,0.416603,0.128594,0.01353,0.316409,0.754891,3.085
RSTM-TLRW-arm,read_rw,0.004544,0.008775,0.421228,0.128161,0.013495,0.315491,0.758642,3.098
RSTM-TLRW-arm,read_rw,0.004663,0.008951,0.4225,0.128172,0.013619,0.316716,0.761503,3.119
RSTM-TLRW-arm,read_rw,0.004564,0.008701,0.416497,0.128611,0.013441,0.31717,0.755511,3.105
RSTM-TLRW-arm,read_rw,0.004534,0.008703,0.419632,0.128368,0.013373,0.316132,0.757682,3.093
RSTM-TLRW-arm,read_rw,0.004507,0.008722,0.416179,0.128827,0.013415,0.317072,0.755179,3.082
RSTM-TLRW-arm,read_rw,0.004708,0.008716,0.417877,0.128488,0.013719,0.317703,0.757779,3.126
RSTM-TLRW-arm,read_rw,0.004551,0.008747,0.415193,0.128508,0.013481,0.316848,0.754125,3.093
RSTM-TLRW-arm,read_rw,0.004537,0.008659,0.427022,0.128931,0.013405,0.317801,0.766561,3.110
RSTM-TLRW-arm,read_rw,0.004452,0.008746,0.538306,0.148429,0.015737,0.365623,0.926156,3.582
RSTM-TLRW-arm,read_rw,0.004532,0.008672,0.418765,0.128777,0.013509,0.317166,0.758,3.096
RSTM-TLRW-arm,read_rw,0.004553,0.008584,0.41795,0.128188,0.013432,0.316064,0.756013,3.098
RSTM-TLRW-arm,read_rw,0.004485,0.008709,0.416573,0.128589,0.013455,0.315678,0.754459,3.086
RSTM-TLRW-arm,read_rw,0.00445,0.008669,0.419734,0.12822,0.01351,0.316151,0.758003,3.085
RSTM-TLRW-arm,read_rw,0.004484,0.008596,0.41905,0.128363,0.01339,0.316609,0.75726,3.086
RSTM-TLRW-arm,read_rw,0.004506,0.008781,0.416515,0.128175,0.013959,0.31641,0.755111,3.087
RSTM-TLRW-arm,read_rw,0.004483,0.008602,0.42276,0.128531,0.013436,0.316805,0.76122,3.101
RSTM-TLRW-arm,read_rw,0.004534,0.008714,0.426443,0.128184,0.01349,0.316191,0.764603,3.095
RSTM-TLRW-arm,read_rw,0.004495,0.008597,0.418227,0.128265,0.013393,0.316989,0.756858,3.084
RSTM-TLRW-arm,read_rw,0.004534,0.008682,0.418523,0.128095,0.01349,0.315859,0.756297,3.094
RSTM-TLRW-arm,read_rw,0.004501,0.008626,0.415356,0.127954,0.013406,0.316973,0.754163,3.085
RSTM-TLRW-arm,read_rw,0.004572,0.00869,0.415861,0.128541,0.013527,0.316348,0.754273,3.084
RSTM-TLRW-arm,read_rw,0.004457,0.008593,0.417885,0.12878,0.013358,0.316754,0.756406,3.080
RSTM-TLRW-arm,read_rw,0.00449,0.008651,0.420335,0.128619,0.013493,0.316602,0.758783,3.089
RSTM-TLRW-arm,read_rw,0.004484,0.008581,0.419287,0.131948,0.014115,0.322025,0.763059,3.089
RSTM-TLRW-arm,read_rw,0.004555,0.008656,0.416552,0.128559,0.01351,0.317297,0.755627,3.101
RSTM-TLRW-arm,read_rw,0.004513,0.008698,0.418052,0.128419,0.013485,0.316776,0.756712,3.085
RSTM-TLRW-arm,read_rw,0.004432,0.008565,0.41735,0.12854,0.013397,0.316298,0.755216,3.077
RSTM-TLRW-arm,read_rw,0.004471,0.008588,0.417192,0.128321,0.013434,0.316277,0.755093,3.077
RSTM-TLRW-arm,read_rw,0.004469,0.008599,0.421692,0.12864,0.013357,0.317121,0.760584,3.087
RSTM-TLRW-arm,read_rw,0.004472,0.008635,0.426504,0.128459,0.013763,0.316063,0.764313,3.094
RSTM-TLRW-arm,read_rw,0.004515,0.008532,0.418191,0.128536,0.01338,0.315821,0.755681,3.083
RSTM-TLRW-arm,read_rw,0.004534,0.008681,0.414568,0.128234,0.013516,0.316465,0.752844,3.076
RSTM-TLRW-arm,read_rw,0.00452,0.008594,0.420216,0.12833,0.013387,0.316595,0.758482,3.087
RSTM-TLRW-arm,read_rw,0.004564,0.008728,0.41822,0.128448,0.013476,0.315704,0.755791,3.092
RSTM-TLRW-arm,read_rw,0.004526,0.00867,0.42935,0.128344,0.013434,0.316025,0.767277,3.095
RSTM-TLRW-arm,read_rw,0.004543,0.008542,0.423058,0.127953,0.01344,0.316069,0.760712,3.107
RSTM-TLRW-arm,read_rw,0.004561,0.008727,0.428664,0.128575,0.013495,0.317351,0.767864,3.093
RSTM-TLRW-arm,read_rw,0.004464,0.008592,0.418453,0.12829,0.013412,0.316015,0.756154,3.089
RSTM-TLRW-arm,read_rw,0.004489,0.008532,0.440838,0.128304,0.013403,0.316453,0.778888,3.112
RSTM-TLRW-arm,read_rw,0.004503,0.008651,0.416701,0.128133,0.01346,0.316722,0.755161,3.097
RSTM-TLRW-arm,read_rw,0.004467,0.008641,0.420917,0.128156,0.013402,0.315788,0.758467,3.087
RSTM-TLRW-arm,read_rw,0.004481,0.008575,0.424186,0.128343,0.013386,0.316726,0.762705,3.095
RSTM-TLRW-arm,read_rw,0.00455,0.008758,0.421433,0.128978,0.013531,0.317742,0.761213,3.088
RSTM-TLRW-arm,read_rw,0.00457,0.008748,0.414492,0.128627,0.013482,0.317274,0.753653,3.082
RSTM-TLRW-arm,read_rw,0.004468,0.008652,0.416113,0.128451,0.013629,0.316664,0.754616,3.083
RSTM-TLRW-arm,read_rw,0.004508,0.008684,0.420547,0.128101,0.013484,0.3164,0.758723,3.090
RSTM-TLRW-arm,read_rw,0.004503,0.008646,0.418714,0.128741,0.013557,0.317367,0.757942,3.096
RSTM-TLRW-arm,read_rw,0.004483,0.008592,0.417389,0.128401,0.013388,0.316573,0.755527,3.081
RSTM-TLRW-arm,read_rw,0.004433,0.008598,0.414309,0.128143,0.013356,0.31508,0.750949,3.076
RSTM-TLRW-arm,read_rw,0.004482,0.008594,0.421128,0.128487,0.013431,0.317049,0.759995,3.105
RSTM-TLRW-arm,read_rw,0.004438,0.008597,0.418719,0.128074,0.013476,0.316065,0.756547,3.087
RSTM-TLRW-arm,read_rw,0.004458,0.008589,0.425504,0.128409,0.013359,0.316074,0.763295,3.100
RSTM-TLRW-arm,read_rw,0.004493,0.008583,0.416959,0.128291,0.013395,0.316735,0.755458,3.098
