digraph G {
0 [event="store", instruction="  store %struct._Thread* %Self, %struct._Thread** %30, align 8", label="store, Self", line="", variable="Self"];
1 [event="load", instruction="  %31 = load %struct._Thread** %30, align 8, !dbg !338", label="load, Self, 2205", line="2205", variable="Self"];
2 [event="load", instruction="  %34 = load %struct._AVPair** %33, align 8, !dbg !338", label="load, Self_0_1_0_17, 2205", line="2205", variable="Self_0_1_0_17"];
3 [event="load", instruction="  %35 = load %struct._Thread** %30, align 8, !dbg !338", label="load, Self, 2205", line="2205", variable="Self"];
4 [event="load", instruction="  %38 = load %struct._AVPair** %37, align 8, !dbg !338", label="load, Self_0_0_0_17, 2205", line="2205", variable="Self_0_0_0_17"];
5 [event="load", instruction="  %41 = load %struct._Thread** %30, align 8, !dbg !339", label="load, Self, 2209", line="2209", variable="Self"];
6 [event="store", instruction="  store %struct._Thread* %41, %struct._Thread** %28, align 8", label="store, Self", line="", variable="Self"];
7 [event="load", instruction="  %42 = load %struct._Thread** %28, align 8, !dbg !343", label="load, Self, 1208", line="1208", variable="Self"];
8 [event="store", instruction="  store %struct._Thread* %42, %struct._Thread** %27, align 8", label="store, Self", line="", variable="Self"];
9 [event="load", instruction="  %43 = load %struct._Thread** %27, align 8, !dbg !346", label="load, Self, 1168", line="1168", variable="Self"];
10 [event="store", instruction="  store volatile i64 0, i64* %44, align 8, !dbg !346", label="store, Self_0_1, 1168", line="1168", variable="Self_0_1"];
11 [event="load", instruction="  %45 = load %struct._Thread** %27, align 8, !dbg !347", label="load, Self, 1183", line="1183", variable="Self"];
12 [event="load", instruction="  %48 = load %struct._AVPair** %47, align 8, !dbg !347", label="load, Self_0_0_0_17, 1183", line="1183", variable="Self_0_0_0_17"];
13 [event="load", instruction="  %49 = load %struct._Thread** %27, align 8, !dbg !347", label="load, Self, 1183", line="1183", variable="Self"];
14 [event="store", instruction="  store %struct._AVPair* %48, %struct._AVPair** %51, align 8, !dbg !347", label="store, Self_0_1_0_17, 1183", line="1183", variable="Self_0_1_0_17"];
15 [event="load", instruction="  %52 = load %struct._Thread** %27, align 8, !dbg !348", label="load, Self, 1184", line="1184", variable="Self"];
16 [event="store", instruction="  store %struct._AVPair* null, %struct._AVPair** %54, align 8, !dbg !348", label="store, Self_0_2_0_17, 1184", line="1184", variable="Self_0_2_0_17"];
17 [event="load", instruction="  %55 = load %struct._Thread** %27, align 8, !dbg !349", label="load, Self, 1187", line="1187", variable="Self"];
18 [event="store", instruction="  store i32 0, i32* %57, align 4, !dbg !349", label="store, Self_0_5_0_17, 1187", line="1187", variable="Self_0_5_0_17"];
19 [event="load", instruction="  %58 = load %struct._Thread** %27, align 8, !dbg !350", label="load, Self, 1188", line="1188", variable="Self"];
20 [event="load", instruction="  %61 = load %struct._AVPair** %60, align 8, !dbg !350", label="load, Self_0_0_0_16, 1188", line="1188", variable="Self_0_0_0_16"];
21 [event="load", instruction="  %62 = load %struct._Thread** %27, align 8, !dbg !350", label="load, Self, 1188", line="1188", variable="Self"];
22 [event="store", instruction="  store %struct._AVPair* %61, %struct._AVPair** %64, align 8, !dbg !350", label="store, Self_0_1_0_16, 1188", line="1188", variable="Self_0_1_0_16"];
23 [event="load", instruction="  %65 = load %struct._Thread** %27, align 8, !dbg !351", label="load, Self, 1189", line="1189", variable="Self"];
24 [event="store", instruction="  store %struct._AVPair* null, %struct._AVPair** %67, align 8, !dbg !351", label="store, Self_0_2_0_16, 1189", line="1189", variable="Self_0_2_0_16"];
25 [event="load", instruction="  %68 = load %struct._Thread** %27, align 8, !dbg !352", label="load, Self, 1191", line="1191", variable="Self"];
26 [event="load", instruction="  %71 = load %struct._AVPair** %70, align 8, !dbg !352", label="load, Self_0_0_0_18, 1191", line="1191", variable="Self_0_0_0_18"];
27 [event="load", instruction="  %72 = load %struct._Thread** %27, align 8, !dbg !352", label="load, Self, 1191", line="1191", variable="Self"];
28 [event="store", instruction="  store %struct._AVPair* %71, %struct._AVPair** %74, align 8, !dbg !352", label="store, Self_0_1_0_18, 1191", line="1191", variable="Self_0_1_0_18"];
29 [event="load", instruction="  %75 = load %struct._Thread** %27, align 8, !dbg !353", label="load, Self, 1192", line="1192", variable="Self"];
30 [event="store", instruction="  store %struct._AVPair* null, %struct._AVPair** %77, align 8, !dbg !353", label="store, Self_0_2_0_18, 1192", line="1192", variable="Self_0_2_0_18"];
31 [event="load", instruction="  %78 = load %struct._Thread** %27, align 8, !dbg !354", label="load, Self, 1193", line="1193", variable="Self"];
32 [event="store", instruction="  store volatile i64 0, i64* %79, align 8, !dbg !354", label="store, Self_0_2, 1193", line="1193", variable="Self_0_2"];
33 [event="load", instruction="  %80 = load %struct._Thread** %28, align 8, !dbg !355", label="load, Self, 1209", line="1209", variable="Self"];
34 [event="store", instruction="  store volatile i64 0, i64* %81, align 8, !dbg !355", label="store, Self_0_3, 1209", line="1209", variable="Self_0_3"];
35 [event="load", instruction="  %82 = load %struct._Thread** %30, align 8, !dbg !356", label="load, Self, 2210", line="2210", variable="Self"];
36 [event="load", instruction="  %84 = load %struct.tmalloc** %83, align 8, !dbg !356", label="load, Self_0_14, 2210", line="2210", variable="Self_0_14"];
37 [event="load", instruction="  %85 = load %struct._Thread** %30, align 8, !dbg !357", label="load, Self, 2211", line="2211", variable="Self"];
38 [event="load", instruction="  %87 = load %struct.tmalloc** %86, align 8, !dbg !357", label="load, Self_0_15, 2211", line="2211", variable="Self_0_15"];
39 [event="store", instruction="  store i32 1, i32* %29, !dbg !358", label="store, %29, 2223", line="2223", variable="%29"];
40 [event="load", instruction="  %89 = load %struct._Thread** %30, align 8, !dbg !359", label="load, Self, 2226", line="2226", variable="Self"];
41 [event="store", instruction="  store %struct._Thread* %89, %struct._Thread** %26, align 8", label="store, Self", line="", variable="Self"];
42 [event="load", instruction="  %90 = load %struct._Thread** %26, align 8, !dbg !364", label="load, Self, 1470", line="1470", variable="Self"];
43 [event="store", instruction="  store %struct._Log* %91, %struct._Log** %wr.i, align 8, !dbg !364", label="store, wr, 1470", line="1470", variable="wr"];
44 [event="load", instruction="  %92 = load %struct._Thread** %26, align 8, !dbg !366", label="load, Self, 1472", line="1472", variable="Self"];
45 [event="store", instruction="  store %struct._Log* %93, %struct._Log** %rd.i, align 8, !dbg !366", label="store, rd, 1472", line="1472", variable="rd"];
46 [event="load", instruction="  %94 = load %struct._Thread** %26, align 8, !dbg !371", label="load, Self, 1517", line="1517", variable="Self"];
47 [event="store", instruction="  store volatile i64 1, i64* %95, align 8, !dbg !371", label="store, Self_0_2, 1517", line="1517", variable="Self_0_2"];
48 [event="store", instruction="  store i64 1000, i64* %ctr.i, align 8, !dbg !372", label="store, ctr, 1518", line="1518", variable="ctr"];
49 [event="store", instruction="  store i64 0, i64* %maxv.i, align 8, !dbg !374", label="store, maxv, 1519", line="1519", variable="maxv"];
50 [event="load", instruction="  %96 = load %struct._Log** %wr.i, align 8, !dbg !380", label="load, wr, 1525", line="1525", variable="wr"];
51 [event="load", instruction="  %98 = load %struct._AVPair** %97, align 8, !dbg !380", label="load, wr_0_1, 1525", line="1525", variable="wr_0_1"];
52 [event="store", instruction="  store %struct._AVPair* %98, %struct._AVPair** %End.i, align 8, !dbg !380", label="store, End, 1525", line="1525", variable="End"];
53 [event="load", instruction="  %99 = load %struct._Log** %wr.i, align 8, !dbg !381", label="load, wr, 1526", line="1526", variable="wr"];
54 [event="load", instruction="  %101 = load %struct._AVPair** %100, align 8, !dbg !381", label="load, wr_0_0, 1526", line="1526", variable="wr_0_0"];
55 [event="store", instruction="  store %struct._AVPair* %101, %struct._AVPair** %p.i, align 8, !dbg !381", label="store, p, 1526", line="1526", variable="p"];
56 [event="load", instruction="  %463 = load i32* %29, !dbg !579", label="load, %29, 2250", line="2250", variable="%29"];
57 [event="load", instruction="  %103 = load %struct._AVPair** %p.i, align 8, !dbg !381", label="load, p, 1526", line="1526", variable="p"];
58 [event="load", instruction="  %104 = load %struct._AVPair** %End.i, align 8, !dbg !381", label="load, End, 1526", line="1526", variable="End"];
59 [event="load", instruction="  %107 = load %struct._AVPair** %p.i, align 8, !dbg !386", label="load, p, 1527", line="1527", variable="p"];
60 [event="load", instruction="  %109 = load i64** %108, align 8, !dbg !386", label="load, p_0_4, 1527", line="1527", variable="p_0_4"];
61 [event="store", instruction="  store i64* %109, i64** %LockFor.i, align 8, !dbg !386", label="store, LockFor, 1527", line="1527", variable="LockFor"];
62 [event="load", instruction="  %110 = load i64** %LockFor.i, align 8, !dbg !389", label="load, LockFor, 1534", line="1534", variable="LockFor"];
63 [event="store", instruction="  store i8* %111, i8** %24, align 8", label="store, x", line="", variable="x"];
64 [event="load", instruction="  %112 = load i64** %LockFor.i, align 8, !dbg !392", label="load, LockFor, 1535", line="1535", variable="LockFor"];
65 [event="load", instruction="  %113 = load volatile i64* %112, align 8, !dbg !392", label="load, LockFor, 1535", line="1535", variable="LockFor"];
66 [event="store", instruction="  store i64 %113, i64* %cv.i, align 8, !dbg !392", label="store, cv, 1535", line="1535", variable="cv"];
67 [event="load", instruction="  %114 = load i64* %cv.i, align 8, !dbg !393", label="load, cv, 1536", line="1536", variable="cv"];
68 [event="load", instruction="  %280 = load %struct._Thread** %26, align 8, !dbg !476", label="load, Self, 1625", line="1625", variable="Self"];
69 [event="load", instruction="  %281 = load i64* %maxv.i, align 8, !dbg !476", label="load, maxv, 1625", line="1625", variable="maxv"];
70 [event="store", instruction="  store %struct._Thread* %280, %struct._Thread** %15, align 8", label="store, Self", line="", variable="Self"];
71 [event="store", instruction="  store i64 %281, i64* %16, align 8", label="store, maxv", line="", variable="maxv"];
72 [event="load", instruction="  %282 = load volatile i64* getelementptr inbounds ([64 x i64]* @GClock, i32 0, i64 32), align 8, !dbg !481", label="load, !!NONE FOUND!!, 383", line="383", variable="!!NONE FOUND!!"];
73 [event="store", instruction="  store i64 %282, i64* %gv.i.i, align 8, !dbg !481", label="store, gv, 383", line="383", variable="gv"];
74 [event="load", instruction="  %283 = load i64* %gv.i.i, align 8, !dbg !483", label="load, gv, 384", line="384", variable="gv"];
75 [event="store", instruction="  store i64 %284, i64* %wv.i.i, align 8, !dbg !483", label="store, wv, 384", line="384", variable="wv"];
76 [event="load", instruction="  %285 = load i64* %wv.i.i, align 8, !dbg !486", label="load, wv, 385", line="385", variable="wv"];
77 [event="load", instruction="  %286 = load i64* %gv.i.i, align 8, !dbg !486", label="load, gv, 385", line="385", variable="gv"];
78 [event="store", instruction="  store i64 %285, i64* %12, align 8", label="store, newVal", line="", variable="newVal"];
79 [event="store", instruction="  store i64 %286, i64* %13, align 8", label="store, oldVal", line="", variable="oldVal"];
80 [event="store", instruction="  store i64* getelementptr inbounds ([64 x i64]* @GClock, i32 0, i64 32), i64** %14, align 8", label="store, ptr", line="", variable="ptr"];
81 [event="load", instruction="  %287 = load i64* %12, align 8, !dbg !489", label="load, newVal, 46", line="46", variable="newVal"];
82 [event="load", instruction="  %288 = load i64** %14, align 8, !dbg !489", label="load, ptr, 46", line="46", variable="ptr"];
83 [event="load", instruction="  %289 = load i64* %13, align 8, !dbg !489", label="load, oldVal, 46", line="46", variable="oldVal"];
84 [event="store", instruction="  store i64 %290, i64* %prevVal.i.i.i, align 8, !dbg !489", label="store, prevVal, 46", line="46", variable="prevVal"];
85 [event="load", instruction="  %291 = load i64* %prevVal.i.i.i, align 8, !dbg !490", label="load, prevVal, 58", line="58", variable="prevVal"];
86 [event="store", instruction="  store i64 %291, i64* %k.i.i, align 8, !dbg !486", label="store, k, 385", line="385", variable="k"];
87 [event="load", instruction="  %292 = load i64* %k.i.i, align 8, !dbg !491", label="load, k, 386", line="386", variable="k"];
88 [event="load", instruction="  %293 = load i64* %gv.i.i, align 8, !dbg !491", label="load, gv, 386", line="386", variable="gv"];
89 [event="load", instruction="  %118 = load i64* %cv.i, align 8, !dbg !393", label="load, cv, 1536", line="1536", variable="cv"];
90 [event="load", instruction="  %122 = load %struct._Thread** %121, align 8, !dbg !393", label="load, cv_0_7, 1536", line="1536", variable="cv_0_7"];
91 [event="load", instruction="  %123 = load %struct._Thread** %26, align 8, !dbg !393", label="load, Self, 1536", line="1536", variable="Self"];
92 [event="load", instruction="  %170 = load %struct._Log** %rd.i, align 8, !dbg !419", label="load, rd, 1549", line="1549", variable="rd"];
93 [event="load", instruction="  %171 = load i64** %LockFor.i, align 8, !dbg !419", label="load, LockFor, 1549", line="1549", variable="LockFor"];
94 [event="store", instruction="  store %struct._Log* %170, %struct._Log** %10, align 8", label="store, k", line="", variable="k"];
95 [event="store", instruction="  store i64* %171, i64** %11, align 8", label="store, Lock", line="", variable="Lock"];
96 [event="load", instruction="  %172 = load %struct._Log** %10, align 8, !dbg !422", label="load, k, 791", line="791", variable="k"];
97 [event="load", instruction="  %174 = load %struct._AVPair** %173, align 8, !dbg !422", label="load, k_0_1, 791", line="791", variable="k_0_1"];
98 [event="store", instruction="  store %struct._AVPair* %174, %struct._AVPair** %End.i6.i, align 8, !dbg !422", label="store, End, 791", line="791", variable="End"];
99 [event="load", instruction="  %175 = load %struct._Log** %10, align 8, !dbg !423", label="load, k, 792", line="792", variable="k"];
100 [event="load", instruction="  %177 = load %struct._AVPair** %176, align 8, !dbg !423", label="load, k_0_0, 792", line="792", variable="k_0_0"];
101 [event="store", instruction="  store %struct._AVPair* %177, %struct._AVPair** %e.i5.i, align 8, !dbg !423", label="store, e, 792", line="792", variable="e"];
102 [event="load", instruction="  %126 = load %struct._Log** %rd.i, align 8, !dbg !394", label="load, rd, 1538", line="1538", variable="rd"];
103 [event="load", instruction="  %127 = load i64** %LockFor.i, align 8, !dbg !394", label="load, LockFor, 1538", line="1538", variable="LockFor"];
104 [event="store", instruction="  store %struct._Log* %126, %struct._Log** %22, align 8", label="store, k", line="", variable="k"];
105 [event="store", instruction="  store i64* %127, i64** %23, align 8", label="store, Lock", line="", variable="Lock"];
106 [event="load", instruction="  %128 = load %struct._Log** %22, align 8, !dbg !403", label="load, k, 791", line="791", variable="k"];
107 [event="load", instruction="  %130 = load %struct._AVPair** %129, align 8, !dbg !403", label="load, k_0_1, 791", line="791", variable="k_0_1"];
108 [event="store", instruction="  store %struct._AVPair* %130, %struct._AVPair** %End.i.i, align 8, !dbg !403", label="store, End, 791", line="791", variable="End"];
109 [event="load", instruction="  %131 = load %struct._Log** %22, align 8, !dbg !404", label="load, k, 792", line="792", variable="k"];
110 [event="load", instruction="  %133 = load %struct._AVPair** %132, align 8, !dbg !404", label="load, k_0_0, 792", line="792", variable="k_0_0"];
111 [event="store", instruction="  store %struct._AVPair* %133, %struct._AVPair** %e.i.i, align 8, !dbg !404", label="store, e, 792", line="792", variable="e"];
112 [event="load", instruction="  %264 = load i64* %cv.i, align 8, !dbg !469", label="load, cv, 1601", line="1601", variable="cv"];
113 [event="load", instruction="  %265 = load %struct._AVPair** %p.i, align 8, !dbg !469", label="load, p, 1601", line="1601", variable="p"];
114 [event="store", instruction="  store i64 %264, i64* %266, align 8, !dbg !469", label="store, p_0_5, 1601", line="1601", variable="p_0_5"];
115 [event="load", instruction="  %267 = load %struct._AVPair** %p.i, align 8, !dbg !470", label="load, p, 1602", line="1602", variable="p"];
116 [event="store", instruction="  store i8 1, i8* %268, align 1, !dbg !470", label="store, p_0_6, 1602", line="1602", variable="p_0_6"];
117 [event="load", instruction="  %135 = load %struct._AVPair** %e.i.i, align 8, !dbg !404", label="load, e, 792", line="792", variable="e"];
118 [event="load", instruction="  %136 = load %struct._AVPair** %End.i.i, align 8, !dbg !404", label="load, End, 792", line="792", variable="End"];
119 [event="load", instruction="  %139 = load %struct._AVPair** %e.i.i, align 8, !dbg !406", label="load, e, 793", line="793", variable="e"];
120 [event="load", instruction="  %141 = load i64** %140, align 8, !dbg !406", label="load, e_0_4, 793", line="793", variable="e_0_4"];
121 [event="load", instruction="  %142 = load i64** %23, align 8, !dbg !406", label="load, Lock, 793", line="793", variable="Lock"];
122 [event="store", instruction="  store %struct._AVPair* null, %struct._AVPair** %21, !dbg !410", label="store, %21, 797", line="797", variable="%21"];
123 [event="load", instruction="  %145 = load %struct._AVPair** %e.i.i, align 8, !dbg !408", label="load, e, 794", line="794", variable="e"];
124 [event="store", instruction="  store %struct._AVPair* %145, %struct._AVPair** %21, !dbg !408", label="store, %21, 794", line="794", variable="%21"];
125 [event="load", instruction="  %147 = load %struct._AVPair** %e.i.i, align 8, !dbg !404", label="load, e, 792", line="792", variable="e"];
126 [event="load", instruction="  %149 = load %struct._AVPair** %148, align 8, !dbg !404", label="load, e_0_0, 792", line="792", variable="e_0_0"];
127 [event="store", instruction="  store %struct._AVPair* %149, %struct._AVPair** %e.i.i, align 8, !dbg !404", label="store, e, 792", line="792", variable="e"];
128 [event="load", instruction="  %151 = load %struct._AVPair** %21, !dbg !411", label="load, %21, 798", line="798", variable="%21"];
129 [event="load", instruction="  %154 = load i64* %cv.i, align 8, !dbg !412", label="load, cv, 1539", line="1539", variable="cv"];
130 [event="load", instruction="  %158 = load i64* %157, align 8, !dbg !412", label="load, cv_0_5, 1539", line="1539", variable="cv_0_5"];
131 [event="load", instruction="  %159 = load %struct._Thread** %26, align 8, !dbg !412", label="load, Self, 1539", line="1539", variable="Self"];
132 [event="load", instruction="  %161 = load volatile i64* %160, align 8, !dbg !412", label="load, Self_0_4, 1539", line="1539", variable="Self_0_4"];
133 [event="noop", instruction="  br label %275, !dbg !418", label="noop, <none>, 1545", line="1545", variable="<none>"];
134 [event="load", instruction="  %164 = load i64* %cv.i, align 8, !dbg !414", label="load, cv, 1540", line="1540", variable="cv"];
135 [event="load", instruction="  %165 = load %struct._Thread** %26, align 8, !dbg !414", label="load, Self, 1540", line="1540", variable="Self"];
136 [event="store", instruction="  store i64 %164, i64* %166, align 8, !dbg !414", label="store, Self_0_6, 1540", line="1540", variable="Self_0_6"];
137 [event="store", instruction="  store i64 0, i64* %25, !dbg !416", label="store, %25, 1541", line="1541", variable="%25"];
138 [event="noop", instruction="  br label %168, !dbg !417", label="noop, <none>, 1543", line="1543", variable="<none>"];
139 [event="load", instruction="  %410 = load i64* %25, !dbg !559", label="load, %25, 1679", line="1679", variable="%25"];
140 [event="load", instruction="  %276 = load %struct._AVPair** %p.i, align 8, !dbg !381", label="load, p, 1526", line="1526", variable="p"];
141 [event="load", instruction="  %278 = load %struct._AVPair** %277, align 8, !dbg !381", label="load, p_0_0, 1526", line="1526", variable="p_0_0"];
142 [event="store", instruction="  store %struct._AVPair* %278, %struct._AVPair** %p.i, align 8, !dbg !381", label="store, p, 1526", line="1526", variable="p"];
143 [event="load", instruction="  %179 = load %struct._AVPair** %e.i5.i, align 8, !dbg !423", label="load, e, 792", line="792", variable="e"];
144 [event="load", instruction="  %180 = load %struct._AVPair** %End.i6.i, align 8, !dbg !423", label="load, End, 792", line="792", variable="End"];
145 [event="load", instruction="  %183 = load %struct._AVPair** %e.i5.i, align 8, !dbg !424", label="load, e, 793", line="793", variable="e"];
146 [event="load", instruction="  %185 = load i64** %184, align 8, !dbg !424", label="load, e_0_4, 793", line="793", variable="e_0_4"];
147 [event="load", instruction="  %186 = load i64** %11, align 8, !dbg !424", label="load, Lock, 793", line="793", variable="Lock"];
148 [event="store", instruction="  store %struct._AVPair* null, %struct._AVPair** %9, !dbg !426", label="store, %9, 797", line="797", variable="%9"];
149 [event="load", instruction="  %189 = load %struct._AVPair** %e.i5.i, align 8, !dbg !425", label="load, e, 794", line="794", variable="e"];
150 [event="store", instruction="  store %struct._AVPair* %189, %struct._AVPair** %9, !dbg !425", label="store, %9, 794", line="794", variable="%9"];
151 [event="load", instruction="  %191 = load %struct._AVPair** %e.i5.i, align 8, !dbg !423", label="load, e, 792", line="792", variable="e"];
152 [event="load", instruction="  %193 = load %struct._AVPair** %192, align 8, !dbg !423", label="load, e_0_0, 792", line="792", variable="e_0_0"];
153 [event="store", instruction="  store %struct._AVPair* %193, %struct._AVPair** %e.i5.i, align 8, !dbg !423", label="store, e, 792", line="792", variable="e"];
154 [event="load", instruction="  %195 = load %struct._AVPair** %9, !dbg !427", label="load, %9, 798", line="798", variable="%9"];
155 [event="load", instruction="  %198 = load i64* %cv.i, align 8, !dbg !428", label="load, cv, 1553", line="1553", variable="cv"];
156 [event="load", instruction="  %237 = load i64* %ctr.i, align 8, !dbg !453", label="load, ctr, 1590", line="1590", variable="ctr"];
157 [event="store", instruction="  store i64 %237, i64* %c.i, align 8, !dbg !453", label="store, c, 1590", line="1590", variable="c"];
158 [event="load", instruction="  %202 = load i64* %cv.i, align 8, !dbg !428", label="load, cv, 1553", line="1553", variable="cv"];
159 [event="load", instruction="  %203 = load %struct._Thread** %26, align 8, !dbg !428", label="load, Self, 1553", line="1553", variable="Self"];
160 [event="load", instruction="  %205 = load volatile i64* %204, align 8, !dbg !428", label="load, Self_0_4, 1553", line="1553", variable="Self_0_4"];
161 [event="load", instruction="  %233 = load i64* %cv.i, align 8, !dbg !449", label="load, cv, 1571", line="1571", variable="cv"];
162 [event="load", instruction="  %234 = load %struct._Thread** %26, align 8, !dbg !449", label="load, Self, 1571", line="1571", variable="Self"];
163 [event="store", instruction="  store i64 %233, i64* %235, align 8, !dbg !449", label="store, Self_0_6, 1571", line="1571", variable="Self_0_6"];
164 [event="store", instruction="  store i64 0, i64* %25, !dbg !450", label="store, %25, 1572", line="1572", variable="%25"];
165 [event="load", instruction="  %208 = load %struct._AVPair** %p.i, align 8, !dbg !430", label="load, p, 1555", line="1555", variable="p"];
166 [event="load", instruction="  %211 = load i64* %cv.i, align 8, !dbg !430", label="load, cv, 1555", line="1555", variable="cv"];
167 [event="load", instruction="  %212 = load i64** %LockFor.i, align 8, !dbg !430", label="load, LockFor, 1555", line="1555", variable="LockFor"];
168 [event="store", instruction="  store i64 %210, i64* %3, align 8", label="store, newVal", line="", variable="newVal"];
169 [event="store", instruction="  store i64 %211, i64* %4, align 8", label="store, oldVal", line="", variable="oldVal"];
170 [event="store", instruction="  store i64* %212, i64** %5, align 8", label="store, ptr", line="", variable="ptr"];
171 [event="load", instruction="  %213 = load i64* %3, align 8, !dbg !438", label="load, newVal, 46", line="46", variable="newVal"];
172 [event="load", instruction="  %214 = load i64** %5, align 8, !dbg !438", label="load, ptr, 46", line="46", variable="ptr"];
173 [event="load", instruction="  %215 = load i64* %4, align 8, !dbg !438", label="load, oldVal, 46", line="46", variable="oldVal"];
174 [event="store", instruction="  store i64 %216, i64* %prevVal.i8.i, align 8, !dbg !438", label="store, prevVal, 46", line="46", variable="prevVal"];
175 [event="load", instruction="  %217 = load i64* %prevVal.i8.i, align 8, !dbg !440", label="load, prevVal, 58", line="58", variable="prevVal"];
176 [event="load", instruction="  %218 = load i64* %cv.i, align 8, !dbg !430", label="load, cv, 1555", line="1555", variable="cv"];
177 [event="load", instruction="  %239 = load i64** %LockFor.i, align 8, !dbg !456", label="load, LockFor, 1593", line="1593", variable="LockFor"];
178 [event="load", instruction="  %240 = load volatile i64* %239, align 8, !dbg !456", label="load, LockFor, 1593", line="1593", variable="LockFor"];
179 [event="store", instruction="  store i64 %240, i64* %cv.i, align 8, !dbg !456", label="store, cv, 1593", line="1593", variable="cv"];
180 [event="load", instruction="  %241 = load i64* %cv.i, align 8, !dbg !458", label="load, cv, 1595", line="1595", variable="cv"];
181 [event="load", instruction="  %221 = load i64* %cv.i, align 8, !dbg !441", label="load, cv, 1557", line="1557", variable="cv"];
182 [event="load", instruction="  %222 = load i64* %maxv.i, align 8, !dbg !441", label="load, maxv, 1557", line="1557", variable="maxv"];
183 [event="load", instruction="  %225 = load i64* %cv.i, align 8, !dbg !443", label="load, cv, 1558", line="1558", variable="cv"];
184 [event="store", instruction="  store i64 %225, i64* %maxv.i, align 8, !dbg !443", label="store, maxv, 1558", line="1558", variable="maxv"];
185 [event="load", instruction="  %227 = load i64* %cv.i, align 8, !dbg !446", label="load, cv, 1560", line="1560", variable="cv"];
186 [event="load", instruction="  %228 = load %struct._AVPair** %p.i, align 8, !dbg !446", label="load, p, 1560", line="1560", variable="p"];
187 [event="store", instruction="  store i64 %227, i64* %229, align 8, !dbg !446", label="store, p_0_5, 1560", line="1560", variable="p_0_5"];
188 [event="load", instruction="  %230 = load %struct._AVPair** %p.i, align 8, !dbg !447", label="load, p, 1561", line="1561", variable="p"];
189 [event="store", instruction="  store i8 1, i8* %231, align 1, !dbg !447", label="store, p_0_6, 1561", line="1561", variable="p_0_6"];
190 [event="load", instruction="  %245 = load %struct._AVPair** %p.i, align 8, !dbg !459", label="load, p, 1596", line="1596", variable="p"];
191 [event="load", instruction="  %248 = load i64* %cv.i, align 8, !dbg !459", label="load, cv, 1596", line="1596", variable="cv"];
192 [event="load", instruction="  %249 = load i64** %LockFor.i, align 8, !dbg !459", label="load, LockFor, 1596", line="1596", variable="LockFor"];
193 [event="store", instruction="  store i64 %247, i64* %6, align 8", label="store, newVal", line="", variable="newVal"];
194 [event="store", instruction="  store i64 %248, i64* %7, align 8", label="store, oldVal", line="", variable="oldVal"];
195 [event="store", instruction="  store i64* %249, i64** %8, align 8", label="store, ptr", line="", variable="ptr"];
196 [event="load", instruction="  %250 = load i64* %6, align 8, !dbg !462", label="load, newVal, 46", line="46", variable="newVal"];
197 [event="load", instruction="  %251 = load i64** %8, align 8, !dbg !462", label="load, ptr, 46", line="46", variable="ptr"];
198 [event="load", instruction="  %252 = load i64* %7, align 8, !dbg !462", label="load, oldVal, 46", line="46", variable="oldVal"];
199 [event="store", instruction="  store i64 %253, i64* %prevVal.i.i, align 8, !dbg !462", label="store, prevVal, 46", line="46", variable="prevVal"];
200 [event="load", instruction="  %254 = load i64* %prevVal.i.i, align 8, !dbg !463", label="load, prevVal, 58", line="58", variable="prevVal"];
201 [event="load", instruction="  %255 = load i64* %cv.i, align 8, !dbg !459", label="load, cv, 1596", line="1596", variable="cv"];
202 [event="load", instruction="  %270 = load i64* %c.i, align 8, !dbg !472", label="load, c, 1605", line="1605", variable="c"];
203 [event="store", instruction="  store i64 %271, i64* %c.i, align 8, !dbg !472", label="store, c, 1605", line="1605", variable="c"];
204 [event="load", instruction="  %262 = load i64* %cv.i, align 8, !dbg !466", label="load, cv, 1599", line="1599", variable="cv"];
205 [event="store", instruction="  store i64 %262, i64* %maxv.i, align 8, !dbg !466", label="store, maxv, 1599", line="1599", variable="maxv"];
206 [event="load", instruction="  %258 = load i64* %cv.i, align 8, !dbg !464", label="load, cv, 1598", line="1598", variable="cv"];
207 [event="load", instruction="  %259 = load i64* %maxv.i, align 8, !dbg !464", label="load, maxv, 1598", line="1598", variable="maxv"];
208 [event="store", instruction="  store i64 0, i64* %25, !dbg !473", label="store, %25, 1607", line="1607", variable="%25"];
209 [event="noop", instruction="  br label %238, !dbg !475", label="noop, <none>, 1614", line="1614", variable="<none>"];
210 [event="load", instruction="  %296 = load i64* %k.i.i, align 8, !dbg !492", label="load, k, 387", line="387", variable="k"];
211 [event="store", instruction="  store i64 %296, i64* %wv.i.i, align 8, !dbg !492", label="store, wv, 387", line="387", variable="wv"];
212 [event="load", instruction="  %297 = load i64* %wv.i.i, align 8, !dbg !495", label="load, wv, 394", line="394", variable="wv"];
213 [event="load", instruction="  %298 = load %struct._Thread** %15, align 8, !dbg !495", label="load, Self, 394", line="394", variable="Self"];
214 [event="store", instruction="  store i64 %297, i64* %299, align 8, !dbg !495", label="store, Self_0_5, 394", line="394", variable="Self_0_5"];
215 [event="load", instruction="  %300 = load i64* %wv.i.i, align 8, !dbg !496", label="load, wv, 395", line="395", variable="wv"];
216 [event="store", instruction="  store i64 %300, i64* %wv.i, align 8, !dbg !476", label="store, wv, 1625", line="1625", variable="wv"];
217 [event="load", instruction="  %301 = load %struct._Thread** %26, align 8, !dbg !497", label="load, Self, 1646", line="1646", variable="Self"];
218 [event="store", instruction="  store %struct._Thread* %301, %struct._Thread** %17, align 8", label="store, Self", line="", variable="Self"];
219 [event="store", instruction="  store i64 0, i64* %dx.i.i, align 8, !dbg !501", label="store, dx, 1256", line="1256", variable="dx"];
220 [event="load", instruction="  %302 = load %struct._Thread** %17, align 8, !dbg !503", label="load, Self, 1257", line="1257", variable="Self"];
221 [event="load", instruction="  %304 = load volatile i64* %303, align 8, !dbg !503", label="load, Self_0_4, 1257", line="1257", variable="Self_0_4"];
222 [event="store", instruction="  store i64 %304, i64* %rv.i.i, align 8, !dbg !503", label="store, rv, 1257", line="1257", variable="rv"];
223 [event="load", instruction="  %305 = load %struct._Thread** %17, align 8, !dbg !505", label="load, Self, 1258", line="1258", variable="Self"];
224 [event="store", instruction="  store %struct._Log* %306, %struct._Log** %rd.i.i, align 8, !dbg !505", label="store, rd, 1258", line="1258", variable="rd"];
225 [event="load", instruction="  %307 = load %struct._Log** %rd.i.i, align 8, !dbg !507", label="load, rd, 1259", line="1259", variable="rd"];
226 [event="load", instruction="  %309 = load %struct._AVPair** %308, align 8, !dbg !507", label="load, rd_0_1, 1259", line="1259", variable="rd_0_1"];
227 [event="store", instruction="  store %struct._AVPair* %309, %struct._AVPair** %EndOfList.i.i, align 8, !dbg !507", label="store, EndOfList, 1259", line="1259", variable="EndOfList"];
228 [event="load", instruction="  %310 = load %struct._Log** %rd.i.i, align 8, !dbg !510", label="load, rd, 1264", line="1264", variable="rd"];
229 [event="load", instruction="  %312 = load %struct._AVPair** %311, align 8, !dbg !510", label="load, rd_0_0, 1264", line="1264", variable="rd_0_0"];
230 [event="store", instruction="  store %struct._AVPair* %312, %struct._AVPair** %e.i4.i, align 8, !dbg !510", label="store, e, 1264", line="1264", variable="e"];
231 [event="load", instruction="  %314 = load %struct._AVPair** %e.i4.i, align 8, !dbg !510", label="load, e, 1264", line="1264", variable="e"];
232 [event="load", instruction="  %315 = load %struct._AVPair** %EndOfList.i.i, align 8, !dbg !510", label="load, EndOfList, 1264", line="1264", variable="EndOfList"];
233 [event="load", instruction="  %318 = load %struct._AVPair** %e.i4.i, align 8, !dbg !514", label="load, e, 1266", line="1266", variable="e"];
234 [event="load", instruction="  %320 = load i64** %319, align 8, !dbg !514", label="load, e_0_4, 1266", line="1266", variable="e_0_4"];
235 [event="load", instruction="  %321 = load volatile i64* %320, align 8, !dbg !514", label="load, e_0_4, 1266", line="1266", variable="e_0_4"];
236 [event="store", instruction="  store i64 %321, i64* %v.i.i, align 8, !dbg !514", label="store, v, 1266", line="1266", variable="v"];
237 [event="load", instruction="  %322 = load i64* %v.i.i, align 8, !dbg !515", label="load, v, 1267", line="1267", variable="v"];
238 [event="load", instruction="  %349 = load i64* %dx.i.i, align 8, !dbg !521", label="load, dx, 1285", line="1285", variable="dx"];
239 [event="load", instruction="  %326 = load i64* %v.i.i, align 8, !dbg !516", label="load, v, 1278", line="1278", variable="v"];
240 [event="load", instruction="  %330 = load %struct._Thread** %329, align 8, !dbg !516", label="load, v_0_7, 1278", line="1278", variable="v_0_7"];
241 [event="load", instruction="  %332 = load %struct._Thread** %17, align 8, !dbg !516", label="load, Self, 1278", line="1278", variable="Self"];
242 [event="load", instruction="  %335 = load i64* %dx.i.i, align 8, !dbg !516", label="load, dx, 1278", line="1278", variable="dx"];
243 [event="store", instruction="  store i64 %336, i64* %dx.i.i, align 8, !dbg !516", label="store, dx, 1278", line="1278", variable="dx"];
244 [event="load", instruction="  %338 = load i64* %v.i.i, align 8, !dbg !519", label="load, v, 1281", line="1281", variable="v"];
245 [event="load", instruction="  %339 = load i64* %rv.i.i, align 8, !dbg !519", label="load, rv, 1281", line="1281", variable="rv"];
246 [event="load", instruction="  %343 = load i64* %dx.i.i, align 8, !dbg !519", label="load, dx, 1281", line="1281", variable="dx"];
247 [event="store", instruction="  store i64 %344, i64* %dx.i.i, align 8, !dbg !519", label="store, dx, 1281", line="1281", variable="dx"];
248 [event="load", instruction="  %346 = load %struct._AVPair** %e.i4.i, align 8, !dbg !510", label="load, e, 1264", line="1264", variable="e"];
249 [event="load", instruction="  %348 = load %struct._AVPair** %347, align 8, !dbg !510", label="load, e_0_0, 1264", line="1264", variable="e_0_0"];
250 [event="store", instruction="  store %struct._AVPair* %348, %struct._AVPair** %e.i4.i, align 8, !dbg !510", label="store, e, 1264", line="1264", variable="e"];
251 [event="load", instruction="  %355 = load %struct._Log** %wr.i, align 8, !dbg !524", label="load, wr, 1665", line="1665", variable="wr"];
252 [event="store", instruction="  store %struct._Log* %355, %struct._Log** %18, align 8", label="store, k", line="", variable="k"];
253 [event="load", instruction="  %356 = load %struct._Log** %18, align 8, !dbg !531", label="load, k, 758", line="758", variable="k"];
254 [event="load", instruction="  %358 = load %struct._AVPair** %357, align 8, !dbg !531", label="load, k_0_1, 758", line="758", variable="k_0_1"];
255 [event="store", instruction="  store %struct._AVPair* %358, %struct._AVPair** %End.i3.i, align 8, !dbg !531", label="store, End, 758", line="758", variable="End"];
256 [event="load", instruction="  %359 = load %struct._Log** %18, align 8, !dbg !532", label="load, k, 759", line="759", variable="k"];
257 [event="load", instruction="  %361 = load %struct._AVPair** %360, align 8, !dbg !532", label="load, k_0_0, 759", line="759", variable="k_0_0"];
258 [event="store", instruction="  store %struct._AVPair* %361, %struct._AVPair** %e.i2.i, align 8, !dbg !532", label="store, e, 759", line="759", variable="e"];
259 [event="store", instruction="  store i64 0, i64* %25, !dbg !522", label="store, %25, 1653", line="1653", variable="%25"];
260 [event="load", instruction="  %363 = load %struct._AVPair** %e.i2.i, align 8, !dbg !532", label="load, e, 759", line="759", variable="e"];
261 [event="load", instruction="  %364 = load %struct._AVPair** %End.i3.i, align 8, !dbg !532", label="load, End, 759", line="759", variable="End"];
262 [event="load", instruction="  %367 = load %struct._AVPair** %e.i2.i, align 8, !dbg !534", label="load, e, 760", line="760", variable="e"];
263 [event="load", instruction="  %369 = load i64* %368, align 8, !dbg !534", label="load, e_0_3, 760", line="760", variable="e_0_3"];
264 [event="load", instruction="  %370 = load %struct._AVPair** %e.i2.i, align 8, !dbg !534", label="load, e, 760", line="760", variable="e"];
265 [event="load", instruction="  %372 = load i64** %371, align 8, !dbg !534", label="load, e_0_2, 760", line="760", variable="e_0_2"];
266 [event="store", instruction="  store volatile i64 %369, i64* %372, align 8, !dbg !534", label="store, e_0_2, 760", line="760", variable="e_0_2"];
267 [event="load", instruction="  %373 = load %struct._AVPair** %e.i2.i, align 8, !dbg !532", label="load, e, 759", line="759", variable="e"];
268 [event="load", instruction="  %375 = load %struct._AVPair** %374, align 8, !dbg !532", label="load, e_0_0, 759", line="759", variable="e_0_0"];
269 [event="store", instruction="  store %struct._AVPair* %375, %struct._AVPair** %e.i2.i, align 8, !dbg !532", label="store, e, 759", line="759", variable="e"];
270 [event="load", instruction="  %376 = load %struct._Thread** %26, align 8, !dbg !536", label="load, Self, 1669", line="1669", variable="Self"];
271 [event="load", instruction="  %377 = load i64* %wv.i, align 8, !dbg !536", label="load, wv, 1669", line="1669", variable="wv"];
272 [event="store", instruction="  store %struct._Thread* %376, %struct._Thread** %19, align 8", label="store, Self", line="", variable="Self"];
273 [event="store", instruction="  store i64 %377, i64* %20, align 8", label="store, wv", line="", variable="wv"];
274 [event="load", instruction="  %378 = load %struct._Thread** %19, align 8, !dbg !541", label="load, Self, 1391", line="1391", variable="Self"];
275 [event="store", instruction="  store %struct._Log* %379, %struct._Log** %wr.i.i, align 8, !dbg !541", label="store, wr, 1391", line="1391", variable="wr"];
276 [event="load", instruction="  %380 = load %struct._Log** %wr.i.i, align 8, !dbg !546", label="load, wr, 1395", line="1395", variable="wr"];
277 [event="load", instruction="  %382 = load %struct._AVPair** %381, align 8, !dbg !546", label="load, wr_0_1, 1395", line="1395", variable="wr_0_1"];
278 [event="store", instruction="  store %struct._AVPair* %382, %struct._AVPair** %End.i1.i, align 8, !dbg !546", label="store, End, 1395", line="1395", variable="End"];
279 [event="load", instruction="  %383 = load %struct._Log** %wr.i.i, align 8, !dbg !547", label="load, wr, 1396", line="1396", variable="wr"];
280 [event="load", instruction="  %385 = load %struct._AVPair** %384, align 8, !dbg !547", label="load, wr_0_0, 1396", line="1396", variable="wr_0_0"];
281 [event="store", instruction="  store %struct._AVPair* %385, %struct._AVPair** %p.i.i, align 8, !dbg !547", label="store, p, 1396", line="1396", variable="p"];
282 [event="load", instruction="  %387 = load %struct._AVPair** %p.i.i, align 8, !dbg !547", label="load, p, 1396", line="1396", variable="p"];
283 [event="load", instruction="  %388 = load %struct._AVPair** %End.i1.i, align 8, !dbg !547", label="load, End, 1396", line="1396", variable="End"];
284 [event="load", instruction="  %391 = load %struct._AVPair** %p.i.i, align 8, !dbg !549", label="load, p, 1400", line="1400", variable="p"];
285 [event="load", instruction="  %393 = load i8* %392, align 1, !dbg !549", label="load, p_0_6, 1400", line="1400", variable="p_0_6"];
286 [event="load", instruction="  %408 = load %struct._Thread** %19, align 8, !dbg !556", label="load, Self, 1417", line="1417", variable="Self"];
287 [event="store", instruction="  store volatile i64 0, i64* %409, align 8, !dbg !556", label="store, Self_0_2, 1417", line="1417", variable="Self_0_2"];
288 [event="store", instruction="  store i64 1, i64* %25, !dbg !559", label="store, %25, 1679", line="1679", variable="%25"];
289 [event="noop", instruction="  br label %404, !dbg !551", label="noop, <none>, 1401", line="1401", variable="<none>"];
290 [event="load", instruction="  %398 = load %struct._AVPair** %p.i.i, align 8, !dbg !553", label="load, p, 1403", line="1403", variable="p"];
291 [event="store", instruction="  store i8 0, i8* %399, align 1, !dbg !553", label="store, p_0_6, 1403", line="1403", variable="p_0_6"];
292 [event="load", instruction="  %400 = load i64* %20, align 8, !dbg !554", label="load, wv, 1413", line="1413", variable="wv"];
293 [event="load", instruction="  %401 = load %struct._AVPair** %p.i.i, align 8, !dbg !554", label="load, p, 1413", line="1413", variable="p"];
294 [event="load", instruction="  %403 = load i64** %402, align 8, !dbg !554", label="load, p_0_4, 1413", line="1413", variable="p_0_4"];
295 [event="store", instruction="  store volatile i64 %400, i64* %403, align 8, !dbg !554", label="store, p_0_4, 1413", line="1413", variable="p_0_4"];
296 [event="load", instruction="  %405 = load %struct._AVPair** %p.i.i, align 8, !dbg !547", label="load, p, 1396", line="1396", variable="p"];
297 [event="load", instruction="  %407 = load %struct._AVPair** %406, align 8, !dbg !547", label="load, p_0_0, 1396", line="1396", variable="p_0_0"];
298 [event="store", instruction="  store %struct._AVPair* %407, %struct._AVPair** %p.i.i, align 8, !dbg !547", label="store, p, 1396", line="1396", variable="p"];
299 [event="load", instruction="  %413 = load %struct._Thread** %30, align 8, !dbg !560", label="load, Self, 2227", line="2227", variable="Self"];
300 [event="store", instruction="  store %struct._Thread* %413, %struct._Thread** %2, align 8", label="store, Self", line="", variable="Self"];
301 [event="load", instruction="  %414 = load %struct._Thread** %2, align 8, !dbg !563", label="load, Self, 1208", line="1208", variable="Self"];
302 [event="store", instruction="  store %struct._Thread* %414, %struct._Thread** %1, align 8", label="store, Self", line="", variable="Self"];
303 [event="load", instruction="  %415 = load %struct._Thread** %1, align 8, !dbg !565", label="load, Self, 1168", line="1168", variable="Self"];
304 [event="store", instruction="  store volatile i64 0, i64* %416, align 8, !dbg !565", label="store, Self_0_1, 1168", line="1168", variable="Self_0_1"];
305 [event="load", instruction="  %417 = load %struct._Thread** %1, align 8, !dbg !566", label="load, Self, 1183", line="1183", variable="Self"];
306 [event="load", instruction="  %420 = load %struct._AVPair** %419, align 8, !dbg !566", label="load, Self_0_0_0_17, 1183", line="1183", variable="Self_0_0_0_17"];
307 [event="load", instruction="  %421 = load %struct._Thread** %1, align 8, !dbg !566", label="load, Self, 1183", line="1183", variable="Self"];
308 [event="store", instruction="  store %struct._AVPair* %420, %struct._AVPair** %423, align 8, !dbg !566", label="store, Self_0_1_0_17, 1183", line="1183", variable="Self_0_1_0_17"];
309 [event="load", instruction="  %424 = load %struct._Thread** %1, align 8, !dbg !567", label="load, Self, 1184", line="1184", variable="Self"];
310 [event="store", instruction="  store %struct._AVPair* null, %struct._AVPair** %426, align 8, !dbg !567", label="store, Self_0_2_0_17, 1184", line="1184", variable="Self_0_2_0_17"];
311 [event="load", instruction="  %427 = load %struct._Thread** %1, align 8, !dbg !568", label="load, Self, 1187", line="1187", variable="Self"];
312 [event="store", instruction="  store i32 0, i32* %429, align 4, !dbg !568", label="store, Self_0_5_0_17, 1187", line="1187", variable="Self_0_5_0_17"];
313 [event="load", instruction="  %430 = load %struct._Thread** %1, align 8, !dbg !569", label="load, Self, 1188", line="1188", variable="Self"];
314 [event="load", instruction="  %433 = load %struct._AVPair** %432, align 8, !dbg !569", label="load, Self_0_0_0_16, 1188", line="1188", variable="Self_0_0_0_16"];
315 [event="load", instruction="  %434 = load %struct._Thread** %1, align 8, !dbg !569", label="load, Self, 1188", line="1188", variable="Self"];
316 [event="store", instruction="  store %struct._AVPair* %433, %struct._AVPair** %436, align 8, !dbg !569", label="store, Self_0_1_0_16, 1188", line="1188", variable="Self_0_1_0_16"];
317 [event="load", instruction="  %437 = load %struct._Thread** %1, align 8, !dbg !570", label="load, Self, 1189", line="1189", variable="Self"];
318 [event="store", instruction="  store %struct._AVPair* null, %struct._AVPair** %439, align 8, !dbg !570", label="store, Self_0_2_0_16, 1189", line="1189", variable="Self_0_2_0_16"];
319 [event="load", instruction="  %440 = load %struct._Thread** %1, align 8, !dbg !571", label="load, Self, 1191", line="1191", variable="Self"];
320 [event="load", instruction="  %443 = load %struct._AVPair** %442, align 8, !dbg !571", label="load, Self_0_0_0_18, 1191", line="1191", variable="Self_0_0_0_18"];
321 [event="load", instruction="  %444 = load %struct._Thread** %1, align 8, !dbg !571", label="load, Self, 1191", line="1191", variable="Self"];
322 [event="store", instruction="  store %struct._AVPair* %443, %struct._AVPair** %446, align 8, !dbg !571", label="store, Self_0_1_0_18, 1191", line="1191", variable="Self_0_1_0_18"];
323 [event="load", instruction="  %447 = load %struct._Thread** %1, align 8, !dbg !572", label="load, Self, 1192", line="1192", variable="Self"];
324 [event="store", instruction="  store %struct._AVPair* null, %struct._AVPair** %449, align 8, !dbg !572", label="store, Self_0_2_0_18, 1192", line="1192", variable="Self_0_2_0_18"];
325 [event="load", instruction="  %450 = load %struct._Thread** %1, align 8, !dbg !573", label="load, Self, 1193", line="1193", variable="Self"];
326 [event="store", instruction="  store volatile i64 0, i64* %451, align 8, !dbg !573", label="store, Self_0_2, 1193", line="1193", variable="Self_0_2"];
327 [event="load", instruction="  %452 = load %struct._Thread** %2, align 8, !dbg !574", label="load, Self, 1209", line="1209", variable="Self"];
328 [event="store", instruction="  store volatile i64 0, i64* %453, align 8, !dbg !574", label="store, Self_0_3, 1209", line="1209", variable="Self_0_3"];
329 [event="load", instruction="  %454 = load %struct._Thread** %30, align 8, !dbg !575", label="load, Self, 2228", line="2228", variable="Self"];
330 [event="load", instruction="  %456 = load %struct.tmalloc** %455, align 8, !dbg !575", label="load, Self_0_14, 2228", line="2228", variable="Self_0_14"];
331 [event="load", instruction="  %457 = load %struct._Thread** %30, align 8, !dbg !576", label="load, Self, 2229", line="2229", variable="Self"];
332 [event="load", instruction="  %459 = load %struct.tmalloc** %458, align 8, !dbg !576", label="load, Self_0_15, 2229", line="2229", variable="Self_0_15"];
333 [event="store", instruction="  store i32 1, i32* %29, !dbg !577", label="store, %29, 2243", line="2243", variable="%29"];
334 [event="load", instruction="  %461 = load %struct._Thread** %30, align 8, !dbg !578", label="load, Self, 2247", line="2247", variable="Self"];
335 [event="store", instruction="  store i32 0, i32* %29, !dbg !579", label="store, %29, 2250", line="2250", variable="%29"];
0->1 ;
1->2 ;
2->3 ;
3->4 ;
4->5 ;
4->40 ;
5->6 ;
6->7 ;
7->8 ;
8->9 ;
9->10 ;
10->11 ;
11->12 ;
12->13 ;
13->14 ;
14->15 ;
15->16 ;
16->17 ;
17->18 ;
18->19 ;
19->20 ;
20->21 ;
21->22 ;
22->23 ;
23->24 ;
24->25 ;
25->26 ;
26->27 ;
27->28 ;
28->29 ;
29->30 ;
30->31 ;
31->32 ;
32->33 ;
33->34 ;
34->35 ;
35->36 ;
36->37 ;
37->38 ;
38->39 ;
39->56 ;
40->41 ;
41->42 ;
42->43 ;
43->44 ;
44->45 ;
45->46 ;
46->47 ;
47->48 ;
48->49 ;
49->50 ;
50->51 ;
51->52 ;
52->53 ;
53->54 ;
54->55 ;
55->57 ;
57->58 ;
58->59 ;
58->68 ;
59->60 ;
60->61 ;
61->62 ;
62->63 ;
63->64 ;
64->65 ;
65->66 ;
66->67 ;
67->89 ;
67->92 ;
68->69 ;
69->70 ;
70->71 ;
71->72 ;
72->73 ;
73->74 ;
74->75 ;
75->76 ;
76->77 ;
77->78 ;
78->79 ;
79->80 ;
80->81 ;
81->82 ;
82->83 ;
83->84 ;
84->85 ;
85->86 ;
86->87 ;
87->88 ;
88->210 ;
88->212 ;
89->90 ;
90->91 ;
91->92 ;
91->102 ;
92->93 ;
93->94 ;
94->95 ;
95->96 ;
96->97 ;
97->98 ;
98->99 ;
99->100 ;
100->101 ;
101->143 ;
102->103 ;
103->104 ;
104->105 ;
105->106 ;
106->107 ;
107->108 ;
108->109 ;
109->110 ;
110->111 ;
111->117 ;
112->113 ;
113->114 ;
114->115 ;
115->116 ;
116->140 ;
117->118 ;
118->119 ;
118->122 ;
119->120 ;
120->121 ;
121->123 ;
121->125 ;
122->128 ;
123->124 ;
124->128 ;
125->126 ;
126->127 ;
127->117 ;
128->129 ;
128->133 ;
129->130 ;
130->131 ;
131->132 ;
132->134 ;
132->138 ;
133->140 ;
134->135 ;
135->136 ;
136->137 ;
137->139 ;
138->133 ;
139->299 ;
139->334 ;
140->141 ;
141->142 ;
142->57 ;
143->144 ;
144->145 ;
144->148 ;
145->146 ;
146->147 ;
147->149 ;
147->151 ;
148->154 ;
149->150 ;
150->154 ;
151->152 ;
152->153 ;
153->143 ;
154->155 ;
154->156 ;
155->158 ;
155->161 ;
156->157 ;
157->177 ;
158->159 ;
159->160 ;
160->161 ;
160->165 ;
161->162 ;
162->163 ;
163->164 ;
164->139 ;
165->166 ;
166->167 ;
167->168 ;
168->169 ;
169->170 ;
170->171 ;
171->172 ;
172->173 ;
173->174 ;
174->175 ;
175->176 ;
176->161 ;
176->181 ;
177->178 ;
178->179 ;
179->180 ;
180->190 ;
180->202 ;
181->182 ;
182->183 ;
182->185 ;
183->184 ;
184->185 ;
185->186 ;
186->187 ;
187->188 ;
188->189 ;
189->140 ;
190->191 ;
191->192 ;
192->193 ;
193->194 ;
194->195 ;
195->196 ;
196->197 ;
197->198 ;
198->199 ;
199->200 ;
200->201 ;
201->202 ;
201->206 ;
202->203 ;
203->208 ;
203->209 ;
204->205 ;
205->112 ;
206->207 ;
207->112 ;
207->204 ;
208->139 ;
209->177 ;
210->211 ;
211->212 ;
212->213 ;
213->214 ;
214->215 ;
215->216 ;
216->217 ;
217->218 ;
218->219 ;
219->220 ;
220->221 ;
221->222 ;
222->223 ;
223->224 ;
224->225 ;
225->226 ;
226->227 ;
227->228 ;
228->229 ;
229->230 ;
230->231 ;
231->232 ;
232->233 ;
232->238 ;
233->234 ;
234->235 ;
235->236 ;
236->237 ;
237->239 ;
237->244 ;
238->251 ;
238->259 ;
239->240 ;
240->241 ;
241->242 ;
242->243 ;
243->248 ;
244->245 ;
245->246 ;
246->247 ;
247->248 ;
248->249 ;
249->250 ;
250->231 ;
251->252 ;
252->253 ;
253->254 ;
254->255 ;
255->256 ;
256->257 ;
257->258 ;
258->260 ;
259->139 ;
260->261 ;
261->262 ;
261->270 ;
262->263 ;
263->264 ;
264->265 ;
265->266 ;
266->267 ;
267->268 ;
268->269 ;
269->260 ;
270->271 ;
271->272 ;
272->273 ;
273->274 ;
274->275 ;
275->276 ;
276->277 ;
277->278 ;
278->279 ;
279->280 ;
280->281 ;
281->282 ;
282->283 ;
283->284 ;
283->286 ;
284->285 ;
285->289 ;
285->290 ;
286->287 ;
287->288 ;
288->139 ;
289->296 ;
290->291 ;
291->292 ;
292->293 ;
293->294 ;
294->295 ;
295->296 ;
296->297 ;
297->298 ;
298->282 ;
299->300 ;
300->301 ;
301->302 ;
302->303 ;
303->304 ;
304->305 ;
305->306 ;
306->307 ;
307->308 ;
308->309 ;
309->310 ;
310->311 ;
311->312 ;
312->313 ;
313->314 ;
314->315 ;
315->316 ;
316->317 ;
317->318 ;
318->319 ;
319->320 ;
320->321 ;
321->322 ;
322->323 ;
323->324 ;
324->325 ;
325->326 ;
326->327 ;
327->328 ;
328->329 ;
329->330 ;
330->331 ;
331->332 ;
332->333 ;
333->56 ;
334->335 ;
335->56 ;
}
