algo-arch,method,compile_src,clean_dot_cfg,create_po_graph,dl_elim,opt,run,real
RSTM-TLRW-arm,write_rw,0.004603,0.009062,0.864232,0.00242,0.144749,1.031553,3.305
RSTM-TLRW-arm,write_rw,0.004806,0.009038,0.862914,0.002455,0.866782,1.752657,3.534
RSTM-TLRW-arm,write_rw,0.004579,0.009054,0.857991,0.002445,0.863532,1.744571,3.504
RSTM-TLRW-arm,write_rw,0.005299,0.010292,1.296565,0.003735,1.229587,2.552634,4.984
RSTM-TLRW-arm,write_rw,0.004583,0.008895,0.856586,0.002418,0.868966,1.747776,3.490
RSTM-TLRW-arm,write_rw,0.004683,0.009045,0.906295,0.002476,0.868262,1.797148,3.539
RSTM-TLRW-arm,write_rw,0.004616,0.008878,0.862545,0.002411,0.863108,1.748278,3.488
RSTM-TLRW-arm,write_rw,0.004646,0.008843,0.857276,0.002419,0.860551,1.740613,3.498
RSTM-TLRW-arm,write_rw,0.004681,0.008924,0.858115,0.00244,0.860874,1.741765,3.486
RSTM-TLRW-arm,write_rw,0.004612,0.008875,0.867692,0.002419,0.858588,1.748653,3.491
RSTM-TLRW-arm,write_rw,0.004624,0.008901,0.866608,0.002416,0.861271,1.750282,3.497
RSTM-TLRW-arm,write_rw,0.00473,0.008944,0.85669,0.002418,0.869817,1.749651,3.490
RSTM-TLRW-arm,write_rw,0.004686,0.008874,0.861741,0.002431,0.860789,1.744833,3.500
RSTM-TLRW-arm,write_rw,0.004652,0.008961,0.878575,0.002426,0.874285,1.775536,3.518
RSTM-TLRW-arm,write_rw,0.005656,0.010889,0.878554,0.002417,0.871363,1.776108,3.516
RSTM-TLRW-arm,write_rw,0.004713,0.009042,0.863236,0.002434,0.861191,1.746984,3.496
RSTM-TLRW-arm,write_rw,0.004651,0.008983,0.872031,0.002427,0.863723,1.758523,3.506
RSTM-TLRW-arm,write_rw,0.004721,0.009049,0.858533,0.002423,0.864194,1.745391,3.512
RSTM-TLRW-arm,write_rw,0.004671,0.008898,0.853076,0.002426,0.871262,1.746868,3.487
RSTM-TLRW-arm,write_rw,0.004728,0.008974,0.861945,0.002431,0.867996,1.752408,3.519
RSTM-TLRW-arm,write_rw,0.004687,0.008972,0.855804,0.002431,0.858612,1.737061,3.487
RSTM-TLRW-arm,write_rw,0.004641,0.00887,0.859453,0.002433,0.86789,1.74985,3.497
RSTM-TLRW-arm,write_rw,0.004659,0.008924,0.859764,0.002453,0.858728,1.740904,3.479
RSTM-TLRW-arm,write_rw,0.004799,0.009001,0.87233,0.002429,0.858542,1.753789,3.532
RSTM-TLRW-arm,write_rw,0.005764,0.011063,0.854389,0.002428,0.864309,1.745297,3.525
RSTM-TLRW-arm,write_rw,0.004762,0.009026,0.863061,0.002449,0.861753,1.747544,3.503
RSTM-TLRW-arm,write_rw,0.004664,0.008988,0.882825,0.002414,0.858842,1.764407,3.519
RSTM-TLRW-arm,write_rw,0.004678,0.008999,0.848733,0.00242,0.862679,1.733951,3.504
RSTM-TLRW-arm,write_rw,0.004584,0.00892,0.880684,0.00244,0.869194,1.772182,3.516
RSTM-TLRW-arm,write_rw,0.00468,0.00895,0.854231,0.002435,0.859104,1.735781,3.500
RSTM-TLRW-arm,write_rw,0.00475,0.009004,0.862108,0.002439,0.868053,1.752883,3.501
RSTM-TLRW-arm,write_rw,0.00464,0.008873,0.863595,0.002426,0.87157,1.75742,3.493
RSTM-TLRW-arm,write_rw,0.004647,0.008914,0.85467,0.002416,0.91019,1.787343,3.502
RSTM-TLRW-arm,write_rw,0.004709,0.008977,0.856984,0.002435,0.879443,1.758842,3.512
RSTM-TLRW-arm,write_rw,0.004677,0.009199,0.87263,0.002419,0.866986,1.762688,3.516
RSTM-TLRW-arm,write_rw,0.004726,0.008983,0.860426,0.003346,0.883008,1.76628,3.504
RSTM-TLRW-arm,write_rw,0.005281,0.010235,1.297186,0.003694,1.220632,2.544295,4.979
RSTM-TLRW-arm,write_rw,0.004635,0.008981,0.852781,0.002434,0.86757,1.742964,3.485
RSTM-TLRW-arm,write_rw,0.004759,0.008982,0.85865,0.00242,0.868721,1.749912,3.497
RSTM-TLRW-arm,write_rw,0.00467,0.00895,0.918537,0.002431,0.863993,1.805278,3.551
RSTM-TLRW-arm,write_rw,0.004601,0.00889,0.862983,0.002424,0.855653,1.741363,3.483
RSTM-TLRW-arm,write_rw,0.005677,0.008869,0.858856,0.002423,0.860729,1.744037,3.493
RSTM-TLRW-arm,write_rw,0.00461,0.008842,0.857486,0.002411,0.898718,1.778671,3.500
RSTM-TLRW-arm,write_rw,0.004635,0.008842,0.853768,0.002416,0.872099,1.748468,3.489
RSTM-TLRW-arm,write_rw,0.004671,0.009026,0.868583,0.002439,0.879132,1.770829,3.501
RSTM-TLRW-arm,write_rw,0.004736,0.009163,0.86273,0.002425,0.861432,1.747312,3.492
RSTM-TLRW-arm,write_rw,0.004575,0.008822,0.849805,0.002405,0.864517,1.736561,3.500
RSTM-TLRW-arm,write_rw,0.004684,0.00889,0.858359,0.002439,0.863336,1.744355,3.483
RSTM-TLRW-arm,write_rw,0.004689,0.008988,0.857667,0.002436,0.880396,1.760752,3.497
RSTM-TLRW-arm,write_rw,0.004566,0.008953,0.862319,0.002447,0.865997,1.75075,3.503
RSTM-TLRW-arm,write_rw,0.00471,0.009036,0.863821,0.002399,0.861058,1.747492,3.492
RSTM-TLRW-arm,write_rw,0.004659,0.008943,0.855818,0.002403,0.859611,1.737939,3.489
RSTM-TLRW-arm,write_rw,0.004667,0.008982,0.863576,0.002431,0.863842,1.750148,3.503
RSTM-TLRW-arm,write_rw,0.004693,0.009,0.871028,0.002423,0.868936,1.762642,3.515
RSTM-TLRW-arm,write_rw,0.004669,0.008881,0.857075,0.002409,0.857953,1.737418,3.498
RSTM-TLRW-arm,write_rw,0.004666,0.008913,0.862332,0.002447,0.867466,1.752194,3.493
RSTM-TLRW-arm,write_rw,0.004676,0.008822,0.862838,0.002441,0.864035,1.749164,3.489
RSTM-TLRW-arm,write_rw,0.004629,0.008908,0.856674,0.002417,0.86122,1.740547,3.485
RSTM-TLRW-arm,write_rw,0.00464,0.008849,0.858061,0.002437,0.858919,1.739215,3.481
RSTM-TLRW-arm,write_rw,0.004613,0.008897,0.86421,0.002438,0.856401,1.743332,3.488
RSTM-TLRW-arm,write_rw,0.004676,0.008984,0.849773,0.002416,0.874639,1.747175,3.499
RSTM-TLRW-arm,write_rw,0.005522,0.010669,0.873373,0.002427,0.860849,1.760132,3.496
RSTM-TLRW-arm,write_rw,0.004627,0.008914,0.87397,0.002445,0.882905,1.779373,3.508
RSTM-TLRW-arm,write_rw,0.004664,0.008899,0.864818,0.00241,0.858397,1.745579,3.500
RSTM-TLRW-arm,write_rw,0.004654,0.008971,0.884283,0.002419,0.862974,1.76996,3.521
RSTM-TLRW-arm,write_rw,0.004693,0.008967,0.861395,0.002415,0.876809,1.760965,3.491
RSTM-TLRW-arm,write_rw,0.004569,0.008888,0.874072,0.002419,0.861493,1.75783,3.499
RSTM-TLRW-arm,write_rw,0.004707,0.008881,0.869315,0.002438,0.880706,1.772891,3.512
RSTM-TLRW-arm,write_rw,0.00466,0.008929,0.850983,0.002419,0.863246,1.736641,3.479
RSTM-TLRW-arm,write_rw,0.004638,0.009016,0.865152,0.00241,0.864062,1.752144,3.517
RSTM-TLRW-arm,write_rw,0.004735,0.009046,0.854588,0.002442,0.86452,1.742348,3.509
RSTM-TLRW-arm,write_rw,0.00481,0.009029,0.855588,0.00244,0.880513,1.758969,3.508
RSTM-TLRW-arm,write_rw,0.004706,0.009008,0.865992,0.002418,0.85802,1.746558,3.501
RSTM-TLRW-arm,write_rw,0.00467,0.008913,0.862448,0.002421,0.859126,1.743959,3.494
RSTM-TLRW-arm,write_rw,0.004651,0.008903,0.88165,0.002445,0.864275,1.768506,3.504
RSTM-TLRW-arm,write_rw,0.004686,0.009009,0.867548,0.002428,0.865042,1.755586,3.506
RSTM-TLRW-arm,write_rw,0.004736,0.009079,0.866442,0.002447,0.872679,1.762181,3.513
RSTM-TLRW-arm,write_rw,0.006832,0.013459,0.87295,0.002419,0.913542,1.817778,3.536
RSTM-TLRW-arm,write_rw,0.0068,0.013313,0.869148,0.00257,0.872142,1.772441,3.520
RSTM-TLRW-arm,write_rw,0.004822,0.008944,0.854227,0.002437,0.88455,1.761577,3.525
RSTM-TLRW-arm,write_rw,0.0048,0.009062,0.865756,0.002419,0.860079,1.748865,3.501
RSTM-TLRW-arm,write_rw,0.004776,0.009025,0.869768,0.002444,0.857431,1.750163,3.507
RSTM-TLRW-arm,write_rw,0.004704,0.009014,0.870055,0.002418,0.856458,1.749098,3.500
RSTM-TLRW-arm,write_rw,0.004611,0.008978,0.860017,0.002448,0.871073,1.75343,3.503
RSTM-TLRW-arm,write_rw,0.004674,0.009014,0.873889,0.002449,0.860721,1.757504,3.507
RSTM-TLRW-arm,write_rw,0.004798,0.009085,0.859186,0.002416,0.867768,1.749981,3.505
RSTM-TLRW-arm,write_rw,0.004636,0.008932,0.860517,0.002438,0.881731,1.764613,3.511
RSTM-TLRW-arm,write_rw,0.004784,0.009115,0.892998,0.002446,0.86126,1.777233,3.552
RSTM-TLRW-arm,write_rw,0.004767,0.009086,0.861328,0.002453,0.863607,1.748034,3.499
RSTM-TLRW-arm,write_rw,0.004659,0.008988,0.856839,0.002415,0.85823,1.737658,3.495
RSTM-TLRW-arm,write_rw,0.00475,0.00907,0.871187,0.002427,0.862199,1.756269,3.512
RSTM-TLRW-arm,write_rw,0.004701,0.008971,0.857988,0.002451,0.863325,1.743856,3.491
RSTM-TLRW-arm,write_rw,0.004672,0.009072,0.875763,0.002426,0.869946,1.768429,3.516
RSTM-TLRW-arm,write_rw,0.004797,0.00904,0.852642,0.002436,0.870391,1.74575,3.491
RSTM-TLRW-arm,write_rw,0.004705,0.009005,0.869606,0.002437,0.873763,1.766217,3.535
RSTM-TLRW-arm,write_rw,0.0047,0.009019,0.883814,0.002473,0.859262,1.765916,3.527
RSTM-TLRW-arm,write_rw,0.004691,0.009009,0.858434,0.002436,0.881405,1.762487,3.501
RSTM-TLRW-arm,write_rw,0.004679,0.009007,0.854586,0.002441,0.862424,1.739592,3.487
RSTM-TLRW-arm,write_rw,0.004775,0.009119,0.859329,0.002406,0.860999,1.743016,3.496
