algo-arch,method,compile_src,clean_dot_cfg,create_po_graph,dl_elim,opt,run,real
RSTM-TLRW-arm,write_ro,0.004694,0.009036,0.579433,0.002424,0.184085,0.786089,3.126
RSTM-TLRW-arm,write_ro,0.004748,0.009077,0.582907,0.002419,0.184359,0.790128,3.137
RSTM-TLRW-arm,write_ro,0.004695,0.009051,0.57941,0.0024,0.184128,0.786066,3.123
RSTM-TLRW-arm,write_ro,0.005319,0.010359,0.870784,0.003694,0.282651,1.180006,4.445
RSTM-TLRW-arm,write_ro,0.004747,0.009253,0.579697,0.002404,0.184554,0.78699,3.117
RSTM-TLRW-arm,write_ro,0.004585,0.008868,0.57463,0.00242,0.184806,0.781722,3.110
RSTM-TLRW-arm,write_ro,0.004695,0.008975,0.575233,0.002433,0.184312,0.78213,3.123
RSTM-TLRW-arm,write_ro,0.004668,0.00892,0.574357,0.002469,0.184213,0.781038,3.119
RSTM-TLRW-arm,write_ro,0.004684,0.008921,0.588366,0.002416,0.184419,0.79516,3.133
RSTM-TLRW-arm,write_ro,0.004631,0.008899,0.578756,0.002429,0.18447,0.785479,3.109
RSTM-TLRW-arm,write_ro,0.004625,0.008913,0.581645,0.002413,0.184312,0.788338,3.118
RSTM-TLRW-arm,write_ro,0.004598,0.008916,0.578889,0.00242,0.18491,0.786087,3.114
RSTM-TLRW-arm,write_ro,0.00461,0.009066,0.574477,0.002432,0.184451,0.781643,3.109
RSTM-TLRW-arm,write_ro,0.004716,0.008989,0.579321,0.00242,0.184727,0.78651,3.126
RSTM-TLRW-arm,write_ro,0.004762,0.008948,0.576364,0.002418,0.184279,0.783211,3.134
RSTM-TLRW-arm,write_ro,0.004628,0.008872,0.572184,0.002413,0.184105,0.778792,3.113
RSTM-TLRW-arm,write_ro,0.004624,0.008886,0.578333,0.00241,0.184885,0.785432,3.114
RSTM-TLRW-arm,write_ro,0.00464,0.008886,0.626594,0.002417,0.199583,0.848529,3.186
RSTM-TLRW-arm,write_ro,0.004797,0.008941,0.575178,0.0024,0.18414,0.781987,3.130
RSTM-TLRW-arm,write_ro,0.004701,0.008974,0.580681,0.002497,0.183884,0.786912,3.129
RSTM-TLRW-arm,write_ro,0.004669,0.008984,0.599178,0.002652,0.201448,0.823175,3.155
RSTM-TLRW-arm,write_ro,0.004635,0.008873,0.581609,0.002449,0.184422,0.788391,3.120
RSTM-TLRW-arm,write_ro,0.004614,0.008925,0.582576,0.002417,0.184791,0.789558,3.116
RSTM-TLRW-arm,write_ro,0.004723,0.009088,0.581475,0.002435,0.183679,0.787905,3.130
RSTM-TLRW-arm,write_ro,0.004731,0.009127,0.574825,0.002646,0.196573,0.794066,3.139
RSTM-TLRW-arm,write_ro,0.004717,0.009079,0.57747,0.002424,0.183859,0.783987,3.121
RSTM-TLRW-arm,write_ro,0.004713,0.009006,0.578128,0.002408,0.184328,0.785038,3.129
RSTM-TLRW-arm,write_ro,0.004655,0.009019,0.578831,0.002424,0.184598,0.785912,3.120
RSTM-TLRW-arm,write_ro,0.004666,0.008906,0.580362,0.002442,0.183729,0.786344,3.135
RSTM-TLRW-arm,write_ro,0.004658,0.008983,0.58631,0.002433,0.185137,0.793807,3.129
RSTM-TLRW-arm,write_ro,0.004729,0.008997,0.572401,0.002419,0.18454,0.779478,3.118
RSTM-TLRW-arm,write_ro,0.004688,0.008946,0.571427,0.002403,0.184002,0.77792,3.133
RSTM-TLRW-arm,write_ro,0.004687,0.008951,0.574629,0.002698,0.185672,0.782873,3.128
RSTM-TLRW-arm,write_ro,0.004795,0.008971,0.574827,0.002505,0.184555,0.782008,3.173
RSTM-TLRW-arm,write_ro,0.004709,0.009085,0.577768,0.002418,0.184609,0.785131,3.122
RSTM-TLRW-arm,write_ro,0.004692,0.008987,0.578209,0.002417,0.206259,0.807457,3.139
RSTM-TLRW-arm,write_ro,0.005337,0.010321,0.864638,0.00368,0.281867,1.173113,4.439
RSTM-TLRW-arm,write_ro,0.004722,0.009134,0.582703,0.002438,0.184409,0.789771,3.147
RSTM-TLRW-arm,write_ro,0.004694,0.009059,0.57658,0.002422,0.184647,0.783844,3.130
RSTM-TLRW-arm,write_ro,0.00467,0.008926,0.569932,0.002438,0.184163,0.776452,3.109
RSTM-TLRW-arm,write_ro,0.004619,0.008905,0.589137,0.002507,0.184303,0.795831,3.120
RSTM-TLRW-arm,write_ro,0.004703,0.009021,0.572313,0.002419,0.183887,0.778786,3.123
RSTM-TLRW-arm,write_ro,0.004638,0.008891,0.583087,0.00242,0.184593,0.789926,3.119
RSTM-TLRW-arm,write_ro,0.00474,0.009029,0.573849,0.002477,0.184298,0.780661,3.112
RSTM-TLRW-arm,write_ro,0.004681,0.008982,0.581547,0.002413,0.184069,0.788055,3.130
RSTM-TLRW-arm,write_ro,0.004648,0.008958,0.578014,0.002417,0.184272,0.784618,3.121
RSTM-TLRW-arm,write_ro,0.004635,0.008988,0.597474,0.002431,0.185053,0.804946,3.149
RSTM-TLRW-arm,write_ro,0.004663,0.008975,0.573211,0.002438,0.184572,0.780253,3.122
RSTM-TLRW-arm,write_ro,0.004616,0.008893,0.575452,0.002429,0.183997,0.781646,3.110
RSTM-TLRW-arm,write_ro,0.00465,0.008949,0.590435,0.002409,0.184837,0.797774,3.144
RSTM-TLRW-arm,write_ro,0.004607,0.008927,0.580218,0.002415,0.184071,0.786669,3.121
RSTM-TLRW-arm,write_ro,0.004635,0.008915,0.577314,0.002429,0.183557,0.783075,3.121
RSTM-TLRW-arm,write_ro,0.004665,0.008958,0.631591,0.002624,0.201258,0.855303,3.201
RSTM-TLRW-arm,write_ro,0.004669,0.0092,0.579016,0.002493,0.184539,0.786264,3.117
RSTM-TLRW-arm,write_ro,0.004628,0.008965,0.574518,0.002448,0.184554,0.781445,3.117
RSTM-TLRW-arm,write_ro,0.004616,0.008955,0.573491,0.002417,0.184396,0.780243,3.133
RSTM-TLRW-arm,write_ro,0.004687,0.008905,0.575402,0.002626,0.195574,0.793317,3.140
RSTM-TLRW-arm,write_ro,0.004593,0.008931,0.577703,0.002397,0.184382,0.784288,3.114
RSTM-TLRW-arm,write_ro,0.004765,0.008901,0.578455,0.002417,0.185289,0.786066,3.135
RSTM-TLRW-arm,write_ro,0.004687,0.009051,0.583315,0.002416,0.184385,0.79018,3.140
RSTM-TLRW-arm,write_ro,0.004649,0.008894,0.575745,0.002426,0.184505,0.782536,3.113
RSTM-TLRW-arm,write_ro,0.004484,0.008859,0.582593,0.002417,0.184052,0.788617,3.117
RSTM-TLRW-arm,write_ro,0.004626,0.008983,0.57536,0.002407,0.18372,0.781488,3.118
RSTM-TLRW-arm,write_ro,0.0046,0.00885,0.574812,0.002443,0.184309,0.781278,3.115
RSTM-TLRW-arm,write_ro,0.004657,0.008946,0.584622,0.002409,0.184597,0.791661,3.126
RSTM-TLRW-arm,write_ro,0.00466,0.009025,0.575267,0.002417,0.184271,0.781982,3.115
RSTM-TLRW-arm,write_ro,0.004685,0.008963,0.580076,0.002426,0.183738,0.786418,3.116
RSTM-TLRW-arm,write_ro,0.004626,0.008933,0.587154,0.002406,0.184239,0.793719,3.140
RSTM-TLRW-arm,write_ro,0.004706,0.008941,0.5793,0.002428,0.184331,0.786015,3.137
RSTM-TLRW-arm,write_ro,0.004675,0.009011,0.578884,0.002426,0.183953,0.785393,3.118
RSTM-TLRW-arm,write_ro,0.004682,0.009017,0.580781,0.002423,0.184531,0.787956,3.133
RSTM-TLRW-arm,write_ro,0.004657,0.009006,0.582429,0.002419,0.184518,0.789496,3.133
RSTM-TLRW-arm,write_ro,0.004821,0.009145,0.579354,0.002377,0.184259,0.786469,3.148
RSTM-TLRW-arm,write_ro,0.004652,0.008973,0.580323,0.00243,0.184852,0.787542,3.119
RSTM-TLRW-arm,write_ro,0.004642,0.008901,0.579469,0.002434,0.184405,0.78616,3.114
RSTM-TLRW-arm,write_ro,0.004682,0.009053,0.580584,0.002411,0.183803,0.786929,3.127
RSTM-TLRW-arm,write_ro,0.004635,0.009011,0.60571,0.002431,0.183976,0.812137,3.151
RSTM-TLRW-arm,write_ro,0.004692,0.008971,0.573621,0.002429,0.184161,0.780289,3.113
RSTM-TLRW-arm,write_ro,0.004768,0.00906,0.570974,0.00242,0.183626,0.777245,3.133
RSTM-TLRW-arm,write_ro,0.004688,0.009014,0.583381,0.002409,0.184097,0.790054,3.122
RSTM-TLRW-arm,write_ro,0.004694,0.00913,0.576324,0.00243,0.184856,0.783931,3.116
RSTM-TLRW-arm,write_ro,0.004716,0.00909,0.574407,0.00242,0.183908,0.78095,3.140
RSTM-TLRW-arm,write_ro,0.004807,0.009049,0.572712,0.002441,0.18436,0.779696,3.120
RSTM-TLRW-arm,write_ro,0.004711,0.008995,0.579884,0.002437,0.184913,0.787258,3.131
RSTM-TLRW-arm,write_ro,0.004682,0.009047,0.574758,0.002422,0.18451,0.781893,3.119
RSTM-TLRW-arm,write_ro,0.004791,0.009191,0.582508,0.002409,0.184496,0.789866,3.133
RSTM-TLRW-arm,write_ro,0.00479,0.008994,0.570602,0.002416,0.184204,0.777307,3.118
RSTM-TLRW-arm,write_ro,0.004709,0.00913,0.573666,0.002423,0.18459,0.780985,3.129
RSTM-TLRW-arm,write_ro,0.00484,0.00909,0.578103,0.002423,0.184451,0.785287,3.133
RSTM-TLRW-arm,write_ro,0.00473,0.008987,0.584743,0.00242,0.185004,0.792268,3.133
RSTM-TLRW-arm,write_ro,0.004692,0.008976,0.578882,0.002468,0.184638,0.786004,3.120
RSTM-TLRW-arm,write_ro,0.004672,0.009063,0.57387,0.002422,0.184071,0.780946,3.125
RSTM-TLRW-arm,write_ro,0.004714,0.00912,0.583282,0.002535,0.184753,0.79084,3.139
RSTM-TLRW-arm,write_ro,0.004758,0.009023,0.576428,0.002439,0.184291,0.783264,3.133
RSTM-TLRW-arm,write_ro,0.004734,0.009121,0.580266,0.002626,0.20018,0.803321,3.156
RSTM-TLRW-arm,write_ro,0.00485,0.009079,0.578154,0.002411,0.184202,0.785335,3.124
RSTM-TLRW-arm,write_ro,0.004714,0.009102,0.571548,0.002413,0.184543,0.778877,3.121
RSTM-TLRW-arm,write_ro,0.004711,0.009085,0.597772,0.002462,0.184499,0.804885,3.142
RSTM-TLRW-arm,write_ro,0.004871,0.009148,0.581819,0.002415,0.183987,0.788699,3.140
