algo-arch,method,compile_src,clean_dot_cfg,create_po_graph,dl_elim,lp,opt,run,real
TL2-Eager-arm,TxLoad,0.004683,0.009033,2.561677,0.040119,0.062275,2.740941,5.329861,6.610
TL2-Eager-arm,TxLoad,0.004725,0.00901,2.606982,0.040128,0.061755,2.738677,5.373055,6.639
TL2-Eager-arm,TxLoad,0.004733,0.009064,2.591476,0.040069,0.062055,2.731778,5.35079,6.623
TL2-Eager-arm,TxLoad,0.004764,0.009192,2.567963,0.040262,0.061879,2.753377,5.348929,6.617
TL2-Eager-arm,TxLoad,0.0047,0.009008,2.591045,0.040337,0.061845,2.743039,5.361793,6.622
TL2-Eager-arm,TxLoad,0.0047,0.009019,2.62077,0.040189,0.061731,2.75125,5.399735,6.665
TL2-Eager-arm,TxLoad,0.004731,0.008996,2.583981,0.040646,0.061641,2.72902,5.340578,6.619
TL2-Eager-arm,TxLoad,0.004687,0.008979,2.579717,0.040407,0.063979,2.73154,5.338759,6.623
TL2-Eager-arm,TxLoad,0.004626,0.008883,2.579828,0.040209,0.061739,2.726308,5.333188,6.595
TL2-Eager-arm,TxLoad,0.004639,0.008913,2.59764,0.040184,0.061555,2.728993,5.353785,6.621
TL2-Eager-arm,TxLoad,0.004646,0.008918,2.573606,0.040403,0.061666,2.735039,5.335813,6.587
TL2-Eager-arm,TxLoad,0.004619,0.008936,2.604873,0.040609,0.06173,2.737699,5.369651,6.626
TL2-Eager-arm,TxLoad,0.004638,0.008898,2.578856,0.040204,0.061621,2.742647,5.348555,6.591
TL2-Eager-arm,TxLoad,0.004644,0.008913,2.578903,0.040282,0.061922,2.729718,5.335765,6.591
TL2-Eager-arm,TxLoad,0.004581,0.008892,2.722917,0.040009,0.061664,2.732404,5.482536,6.739
TL2-Eager-arm,TxLoad,0.00462,0.008893,2.592836,0.040391,0.061583,2.720173,5.34077,6.606
TL2-Eager-arm,TxLoad,0.004657,0.008943,2.565081,0.040191,0.061663,2.725486,5.317878,6.572
TL2-Eager-arm,TxLoad,0.004679,0.009048,2.57009,0.040535,0.062339,2.757885,5.35537,6.598
TL2-Eager-arm,TxLoad,0.004573,0.00894,2.580942,0.040072,0.061623,2.736047,5.344064,6.599
TL2-Eager-arm,TxLoad,0.004678,0.00898,2.583262,0.040509,0.062333,2.742278,5.352871,6.610
TL2-Eager-arm,TxLoad,0.004773,0.009,2.598128,0.040206,0.061857,2.733353,5.35878,6.629
TL2-Eager-arm,TxLoad,0.004695,0.009051,2.581898,0.040117,0.062452,2.729614,5.339277,6.602
TL2-Eager-arm,TxLoad,0.00458,0.008953,2.606776,0.040108,0.062005,2.734215,5.368094,6.616
TL2-Eager-arm,TxLoad,0.00474,0.009217,2.607133,0.040366,0.062168,2.730853,5.365694,6.654
TL2-Eager-arm,TxLoad,0.004725,0.009051,2.572475,0.040235,0.061943,2.726537,5.326648,6.600
TL2-Eager-arm,TxLoad,0.004743,0.009082,2.579768,0.040099,0.061519,2.736166,5.343825,6.627
TL2-Eager-arm,TxLoad,0.004627,0.009081,2.591624,0.040106,0.062189,2.727999,5.346945,6.608
TL2-Eager-arm,TxLoad,0.004708,0.009008,2.695559,0.04029,0.062105,2.721564,5.444501,6.715
TL2-Eager-arm,TxLoad,0.004695,0.009034,2.657069,0.040429,0.066778,2.75361,5.438758,6.691
TL2-Eager-arm,TxLoad,0.004695,0.00903,2.588596,0.040328,0.062031,2.733684,5.350132,6.610
TL2-Eager-arm,TxLoad,0.004666,0.009014,2.633393,0.0402,0.062206,2.751845,5.412607,6.662
TL2-Eager-arm,TxLoad,0.004673,0.008999,2.577866,0.040381,0.061804,2.748698,5.353979,6.615
TL2-Eager-arm,TxLoad,0.004649,0.008913,2.567514,0.040213,0.061479,2.725666,5.32073,6.591
TL2-Eager-arm,TxLoad,0.004701,0.009019,2.58789,0.040168,0.061843,2.732185,5.347408,6.604
TL2-Eager-arm,TxLoad,0.004674,0.009014,2.588775,0.040127,0.062208,2.730331,5.346615,6.612
TL2-Eager-arm,TxLoad,0.004659,0.009072,2.572183,0.040552,0.062155,2.737157,5.336926,6.605
TL2-Eager-arm,TxLoad,0.004624,0.009003,2.608897,0.040366,0.061741,2.744711,5.381013,6.639
TL2-Eager-arm,TxLoad,0.004779,0.009178,2.598313,0.040153,0.062549,2.731826,5.357723,6.618
TL2-Eager-arm,TxLoad,0.004636,0.00911,2.57916,0.040209,0.061652,2.742573,5.349482,6.624
TL2-Eager-arm,TxLoad,0.004673,0.00898,2.576473,0.040188,0.061341,2.724435,5.328302,6.594
TL2-Eager-arm,TxLoad,0.004716,0.009032,2.697317,0.040199,0.061463,2.731893,5.456559,6.720
TL2-Eager-arm,TxLoad,0.00468,0.009026,2.608779,0.04006,0.06191,2.743748,5.379795,6.643
TL2-Eager-arm,TxLoad,0.004674,0.008988,2.587879,0.040334,0.061559,2.738549,5.353623,6.624
TL2-Eager-arm,TxLoad,0.004708,0.00899,2.587165,0.040219,0.061527,2.727966,5.342561,6.610
TL2-Eager-arm,TxLoad,0.004608,0.00888,2.582489,0.040344,0.061727,2.737477,5.347085,6.594
TL2-Eager-arm,TxLoad,0.004651,0.008898,2.569652,0.040007,0.061699,2.723018,5.319846,6.603
TL2-Eager-arm,TxLoad,0.004648,0.008891,2.677313,0.040141,0.061727,2.721784,5.426067,6.681
TL2-Eager-arm,TxLoad,0.004629,0.009037,2.570812,0.040362,0.062565,2.732614,5.330734,6.624
TL2-Eager-arm,TxLoad,0.004825,0.009044,2.564553,0.040292,0.061978,2.737845,5.330077,6.584
TL2-Eager-arm,TxLoad,0.004634,0.00892,2.616295,0.040212,0.06163,2.72669,5.370624,6.635
TL2-Eager-arm,TxLoad,0.004597,0.009051,2.583793,0.040336,0.062136,2.72737,5.338889,6.596
TL2-Eager-arm,TxLoad,0.004761,0.008994,2.582832,0.040116,0.066626,2.725899,5.336171,6.611
TL2-Eager-arm,TxLoad,0.004629,0.008962,2.574055,0.040222,0.061748,2.732378,5.333702,6.590
TL2-Eager-arm,TxLoad,0.004742,0.009085,2.563722,0.040469,0.061755,2.787025,5.378224,6.609
TL2-Eager-arm,TxLoad,0.004605,0.008964,2.607982,0.040405,0.062378,2.737733,5.373156,6.628
TL2-Eager-arm,TxLoad,0.004721,0.008992,2.572646,0.040102,0.061848,2.732033,5.332628,6.589
TL2-Eager-arm,TxLoad,0.004605,0.008876,2.583648,0.040469,0.062057,2.729146,5.34017,6.596
TL2-Eager-arm,TxLoad,0.004621,0.00885,2.592328,0.040298,0.061945,2.736814,5.356181,6.619
TL2-Eager-arm,TxLoad,0.004677,0.009003,2.573766,0.040104,0.061693,2.733691,5.33471,6.592
TL2-Eager-arm,TxLoad,0.004726,0.008921,2.566719,0.040175,0.062119,2.777294,5.3716,6.609
TL2-Eager-arm,TxLoad,0.004638,0.008934,2.585672,0.040112,0.061668,2.744343,5.357113,6.609
TL2-Eager-arm,TxLoad,0.00467,0.008923,2.611294,0.040366,0.061728,2.747608,5.386102,6.640
TL2-Eager-arm,TxLoad,0.004656,0.008963,2.581487,0.040255,0.061682,2.740408,5.349142,6.618
TL2-Eager-arm,TxLoad,0.004698,0.008973,2.587263,0.040216,0.061825,2.717984,5.332684,6.594
TL2-Eager-arm,TxLoad,0.00465,0.0089,2.644303,0.040206,0.061366,2.731558,5.402941,6.683
TL2-Eager-arm,TxLoad,0.004604,0.008894,2.586393,0.040112,0.061651,2.721738,5.335278,6.587
TL2-Eager-arm,TxLoad,0.004766,0.009054,2.598904,0.040204,0.064299,2.775925,5.402287,6.652
TL2-Eager-arm,TxLoad,0.004665,0.008949,2.687125,0.040438,0.061744,2.733048,5.447562,6.708
TL2-Eager-arm,TxLoad,0.004623,0.009023,2.5733,0.040316,0.061463,2.749425,5.350288,6.601
TL2-Eager-arm,TxLoad,0.004754,0.009075,2.577779,0.040293,0.061429,2.753958,5.359166,6.606
TL2-Eager-arm,TxLoad,0.004858,0.009162,2.575676,0.040209,0.06182,2.740393,5.343938,6.612
TL2-Eager-arm,TxLoad,0.004674,0.009028,2.61109,0.04003,0.061032,2.806522,5.445227,6.670
TL2-Eager-arm,TxLoad,0.004718,0.009054,2.724007,0.040398,0.061624,2.72426,5.47582,6.748
TL2-Eager-arm,TxLoad,0.004666,0.00899,2.573135,0.040145,0.06226,2.743147,5.34388,6.623
TL2-Eager-arm,TxLoad,0.004676,0.008907,2.563435,0.040219,0.061929,2.754028,5.345131,6.591
TL2-Eager-arm,TxLoad,0.004778,0.009159,2.64483,0.040222,0.06207,2.734482,5.407063,6.667
TL2-Eager-arm,TxLoad,0.004751,0.009125,2.580908,0.040346,0.062062,2.728643,5.337259,6.607
TL2-Eager-arm,TxLoad,0.0046,0.009016,2.571592,0.04009,0.061646,2.731603,5.330506,6.591
TL2-Eager-arm,TxLoad,0.004721,0.009026,2.602334,0.040526,0.062199,2.731538,5.361199,6.621
TL2-Eager-arm,TxLoad,0.004765,0.009172,2.587598,0.040522,0.062378,2.730721,5.345887,6.624
TL2-Eager-arm,TxLoad,0.004851,0.009167,2.578154,0.040263,0.06219,2.72678,5.332589,6.631
TL2-Eager-arm,TxLoad,0.004738,0.009151,2.588331,0.040137,0.061781,2.725728,5.341618,6.621
TL2-Eager-arm,TxLoad,0.004853,0.009032,2.581372,0.040237,0.062086,2.741618,5.350769,6.617
TL2-Eager-arm,TxLoad,0.004689,0.009035,2.579325,0.040018,0.061658,2.726126,5.333487,6.612
TL2-Eager-arm,TxLoad,0.004642,0.008984,2.599774,0.040141,0.062698,2.724332,5.351507,6.624
TL2-Eager-arm,TxLoad,0.004816,0.009133,2.571905,0.040223,0.062162,2.742993,5.342682,6.620
TL2-Eager-arm,TxLoad,0.004827,0.009116,2.599055,0.040384,0.062024,2.731673,5.358367,6.635
TL2-Eager-arm,TxLoad,0.004678,0.009006,2.625374,0.040269,0.061785,2.722696,5.375465,6.638
TL2-Eager-arm,TxLoad,0.004731,0.009114,2.584853,0.040016,0.063024,2.728883,5.341331,6.607
TL2-Eager-arm,TxLoad,0.004638,0.008996,2.578506,0.040238,0.062146,2.721721,5.327389,6.597
TL2-Eager-arm,TxLoad,0.004665,0.009192,2.575623,0.040127,0.062384,2.746926,5.350018,6.605
TL2-Eager-arm,TxLoad,0.004703,0.009034,2.575925,0.040477,0.061705,2.738997,5.342254,6.604
TL2-Eager-arm,TxLoad,0.004774,0.009061,2.583592,0.040141,0.061657,2.730019,5.341321,6.634
TL2-Eager-arm,TxLoad,0.004687,0.009026,2.608833,0.040142,0.061852,2.732435,5.368967,6.644
TL2-Eager-arm,TxLoad,0.004776,0.009132,2.563177,0.040034,0.062401,2.74322,5.333959,6.608
TL2-Eager-arm,TxLoad,0.004748,0.009173,2.579144,0.040244,0.061929,2.736341,5.343389,6.613
TL2-Eager-arm,TxLoad,0.00473,0.009241,2.607078,0.040366,0.062509,2.744109,5.378774,6.684
TL2-Eager-arm,TxLoad,0.004749,0.009173,2.611395,0.040352,0.062439,2.752173,5.391488,6.649
TL2-Eager-arm,TxLoad,0.004653,0.009053,2.695337,0.040165,0.061995,2.746902,5.4701,6.736
